{
  "augment_User_8_5": {
    "action": "augment",
    "parameters": {
      "right_key": [
        "Id"
      ],
      "left": "augment_User_7_5",
      "left_key": [
        "Mgmt_Chain_Level_10__c"
      ],
      "right_select": [
        "Name",
        "Persona__c",
        "Access_Exception_Reason__c",
        "Access_Remediated__c",
        "Access_Exception__c",
        "Business_Unit__c",
        "API_User__c",
        "FederationIdentifier",
        "IsManager__c",
        "Title",
        "Department",
        "sf62user__Employee_Number__c",
        "BusinessArea__c",
        "sf62user__manager__c"
      ],
      "right": "sfdcDigest_User_5",
      "relationship": "Mgmt_Chain_Level_10__c"
    }
  },
  "augment_User_7_5": {
    "action": "augment",
    "parameters": {
      "right_key": [
        "Id"
      ],
      "left": "augment_User_6_5",
      "left_key": [
        "Mgmt_Chain_Level_09__c"
      ],
      "right_select": [
        "Name",
        "Persona__c",
        "Access_Exception_Reason__c",
        "Access_Remediated__c",
        "Access_Exception__c",
        "Business_Unit__c",
        "API_User__c",
        "FederationIdentifier",
        "IsManager__c",
        "Title",
        "Department",
        "sf62user__Employee_Number__c",
        "BusinessArea__c",
        "sf62user__manager__c"
      ],
      "right": "sfdcDigest_User_5",
      "relationship": "Mgmt_Chain_Level_09__c"
    }
  },
  "augment_User_5": {
    "action": "augment",
    "parameters": {
      "right_key": [
        "Id"
      ],
      "left": "augment_User_User_5",
      "left_key": [
        "Mgmt_Chain_Level_02__c"
      ],
      "right_select": [
        "Name",
        "Persona__c",
        "Access_Exception_Reason__c",
        "Access_Remediated__c",
        "Access_Exception__c",
        "Business_Unit__c",
        "API_User__c",
        "FederationIdentifier",
        "IsManager__c",
        "Title",
        "Department",
        "sf62user__Employee_Number__c",
        "BusinessArea__c",
        "sf62user__manager__c"
      ],
      "right": "sfdcDigest_User_5",
      "relationship": "Mgmt_Chain_Level_02__c"
    }
  },
  "augment_User_User_5": {
    "action": "augment",
    "parameters": {
      "right_key": [
        "Id"
      ],
      "left": "sfdcDigest_User_5",
      "left_key": [
        "Mgmt_Chain_Level_01__c"
      ],
      "right_select": [
        "Name",
        "Persona__c",
        "Access_Exception_Reason__c",
        "Access_Remediated__c",
        "Access_Exception__c",
        "Business_Unit__c",
        "API_User__c",
        "FederationIdentifier",
        "IsManager__c",
        "Title",
        "Department",
        "sf62user__Employee_Number__c",
        "BusinessArea__c",
        "sf62user__manager__c"
      ],
      "right": "sfdcDigest_User_5",
      "relationship": "Mgmt_Chain_Level_01__c"
    }
  },
  "sfdcDigest_Profile_5": {
    "action": "sfdcDigest",
    "parameters": {
      "fields": [
        {
          "name": "Name"
        },
        {
          "name": "Id"
        }
      ],
      "object": "Profile"
    }
  },
  "User_Manager_RBAC": {
    "action": "augment",
    "parameters": {
      "left": "augment_Profile_5",
      "right": "sfdcDigest_User_5",
      "relationship": "Manager",
      "operation": "LookupSingleValue",
      "left_key": [
        "sf62user__manager__c"
      ],
      "right_key": [
        "Id"
      ],
      "right_select": [
        "Mgmt_Chain_Level_02__c",
        "Name",
        "ProfileId",
        "Id",
        "sf62user__manager__c"
      ]
    }
  },
  "augment_User_2_5": {
    "action": "augment",
    "parameters": {
      "right_key": [
        "Id"
      ],
      "left": "augment_User_1_5",
      "left_key": [
        "Mgmt_Chain_Level_04__c"
      ],
      "right_select": [
        "Name",
        "Persona__c",
        "Access_Exception_Reason__c",
        "Access_Remediated__c",
        "Access_Exception__c",
        "Business_Unit__c",
        "API_User__c",
        "FederationIdentifier",
        "IsManager__c",
        "Title",
        "Department",
        "sf62user__Employee_Number__c",
        "BusinessArea__c",
        "sf62user__manager__c"
      ],
      "right": "sfdcDigest_User_5",
      "relationship": "Mgmt_Chain_Level_04__c"
    }
  },
  "sfdcDigest_User_5": {
    "action": "sfdcDigest",
    "parameters": {
      "fields": [
        {
          "name": "EmployeeNumber"
        },
        {
          "name": "Support_Subgroup__c"
        },
        {
          "name": "Support_Group__c"
        },
        {
          "name": "Skill_Group__c"
        },
        {
          "name": "IsActive"
        },
        {
          "name": "JobFamily__c"
        },
        {
          "name": "Mgmt_Chain_Level_01__c"
        },
        {
          "name": "Mgmt_Chain_Level_02__c"
        },
        {
          "name": "Mgmt_Chain_Level_03__c"
        },
        {
          "name": "Mgmt_Chain_Level_04__c"
        },
        {
          "name": "Mgmt_Chain_Level_05__c"
        },
        {
          "name": "Mgmt_Chain_Level_06__c"
        },
        {
          "name": "Mgmt_Chain_Level_07__c"
        },
        {
          "name": "Mgmt_Chain_Level_08__c"
        },
        {
          "name": "Mgmt_Chain_Level_09__c"
        },
        {
          "name": "Mgmt_Chain_Level_10__c"
        },
        {
          "name": "Name"
        },
        {
          "name": "ProfileId"
        },
        {
          "name": "Username"
        },
        {
          "name": "JobCode__c"
        },
        {
          "name": "Cost_Center__c"
        },
        {
          "name": "Delivery_Segmentation__c"
        },
        {
          "name": "Id"
        },
        {
          "name": "Persona__c"
        },
        {
          "name": "Access_Exception_Reason__c"
        },
        {
          "name": "Access_Remediated__c"
        },
        {
          "name": "Access_Exception__c"
        },
        {
          "name": "Business_Unit__c"
        },
        {
          "name": "API_User__c"
        },
        {
          "name": "FederationIdentifier"
        },
        {
          "name": "IsManager__c"
        },
        {
          "name": "Title"
        },
        {
          "name": "Department"
        },
        {
          "name": "sf62user__Employee_Number__c"
        },
        {
          "name": "BusinessArea__c"
        },
        {
          "name": "sf62user__manager__c"
        }
      ],
      "object": "User"
    }
  },
  "augment_User_1_5": {
    "action": "augment",
    "parameters": {
      "right_key": [
        "Id"
      ],
      "left": "augment_User_5",
      "left_key": [
        "Mgmt_Chain_Level_03__c"
      ],
      "right_select": [
        "Name",
        "Persona__c",
        "Access_Exception_Reason__c",
        "Access_Remediated__c",
        "Access_Exception__c",
        "Business_Unit__c",
        "API_User__c",
        "FederationIdentifier",
        "IsManager__c",
        "Title",
        "Department",
        "sf62user__Employee_Number__c",
        "BusinessArea__c",
        "sf62user__manager__c"
      ],
      "right": "sfdcDigest_User_5",
      "relationship": "Mgmt_Chain_Level_03__c"
    }
  },
  "augment_User_4_5": {
    "action": "augment",
    "parameters": {
      "right_key": [
        "Id"
      ],
      "left": "augment_User_3_5",
      "left_key": [
        "Mgmt_Chain_Level_06__c"
      ],
      "right_select": [
        "Name",
        "Persona__c",
        "Access_Exception_Reason__c",
        "Access_Remediated__c",
        "Access_Exception__c",
        "Business_Unit__c",
        "API_User__c",
        "FederationIdentifier",
        "IsManager__c",
        "Title",
        "Department",
        "sf62user__Employee_Number__c",
        "BusinessArea__c",
        "sf62user__manager__c"
      ],
      "right": "sfdcDigest_User_5",
      "relationship": "Mgmt_Chain_Level_06__c"
    }
  },
  "augment_User_3_5": {
    "action": "augment",
    "parameters": {
      "right_key": [
        "Id"
      ],
      "left": "augment_User_2_5",
      "left_key": [
        "Mgmt_Chain_Level_05__c"
      ],
      "right_select": [
        "Name",
        "Persona__c",
        "Access_Exception_Reason__c",
        "Access_Remediated__c",
        "Access_Exception__c",
        "Business_Unit__c",
        "API_User__c",
        "FederationIdentifier",
        "IsManager__c",
        "Title",
        "Department",
        "sf62user__Employee_Number__c",
        "BusinessArea__c",
        "sf62user__manager__c"
      ],
      "right": "sfdcDigest_User_5",
      "relationship": "Mgmt_Chain_Level_05__c"
    }
  },
  "augment_User_6_5": {
    "action": "augment",
    "parameters": {
      "right_key": [
        "Id"
      ],
      "left": "augment_User_5_5",
      "left_key": [
        "Mgmt_Chain_Level_08__c"
      ],
      "right_select": [
        "Name",
        "Persona__c",
        "Access_Exception_Reason__c",
        "Access_Remediated__c",
        "Access_Exception__c",
        "Business_Unit__c",
        "API_User__c",
        "FederationIdentifier",
        "IsManager__c",
        "Title",
        "Department",
        "sf62user__Employee_Number__c",
        "BusinessArea__c",
        "sf62user__manager__c"
      ],
      "right": "sfdcDigest_User_5",
      "relationship": "Mgmt_Chain_Level_08__c"
    }
  },
  "augment_User_5_5": {
    "action": "augment",
    "parameters": {
      "right_key": [
        "Id"
      ],
      "left": "augment_User_4_5",
      "left_key": [
        "Mgmt_Chain_Level_07__c"
      ],
      "right_select": [
        "Name",
        "Persona__c",
        "Access_Exception_Reason__c",
        "Access_Remediated__c",
        "Access_Exception__c",
        "Business_Unit__c",
        "API_User__c",
        "FederationIdentifier",
        "IsManager__c",
        "Title",
        "Department",
        "sf62user__Employee_Number__c",
        "BusinessArea__c",
        "sf62user__manager__c"
      ],
      "right": "sfdcDigest_User_5",
      "relationship": "Mgmt_Chain_Level_07__c"
    }
  },
  "augment_Profile_5": {
    "action": "augment",
    "parameters": {
      "right_key": [
        "Id"
      ],
      "left": "augment_User_8_5",
      "left_key": [
        "ProfileId"
      ],
      "right_select": [
        "Name"
      ],
      "right": "sfdcDigest_Profile_5",
      "relationship": "ProfileId"
    }
  },
  "User.Manager.Mgmt_Chain_Level_02": {
    "action": "augment",
    "parameters": {
      "operation": "LookupSingleValue",
      "left": "User.Manager.Profile",
      "relationship": "User.Manager.Mgmt_Chain_Level_02",
      "right": "sfdcDigest_User_5",
      "left_key": [
        "Manager.Mgmt_Chain_Level_02__c"
      ],
      "right_key": [
        "Id"
      ],
      "right_select": [
        "Name"
      ]
    }
  },
  "User.Manager.Manager": {
    "action": "augment",
    "parameters": {
      "operation": "LookupSingleValue",
      "left": "User.Manager.Mgmt_Chain_Level_02",
      "relationship": "User.Manager.Manager",
      "right": "sfdcDigest_User_5",
      "left_key": [
        "Manager.sf62user__manager__c"
      ],
      "right_key": [
        "Id"
      ],
      "right_select": [
        "Mgmt_Chain_Level_02__c",
        "sf62user__manager__c"
      ]
    }
  },
  "User.Manager.Manager.Mgmt_Chain_Level_02": {
    "action": "augment",
    "parameters": {
      "operation": "LookupSingleValue",
      "left": "User.Manager.Manager",
      "relationship": "User.Manager.Manager.Mgmt_Chain_Level_02",
      "right": "sfdcDigest_User_5",
      "left_key": [
        "User.Manager.Manager.Mgmt_Chain_Level_02__c"
      ],
      "right_key": [
        "Id"
      ],
      "right_select": [
        "Name"
      ]
    }
  },
  "User.Manager.Manager.Manager": {
    "action": "augment",
    "parameters": {
      "operation": "LookupSingleValue",
      "left": "User.Manager.Manager.Mgmt_Chain_Level_02",
      "relationship": "User.Manager.Manager.Manager",
      "left_key": [
        "User.Manager.Manager.sf62user__manager__c"
      ],
      "right": "sfdcDigest_User_5",
      "right_key": [
        "Id"
      ],
      "right_select": [
        "Mgmt_Chain_Level_02__c",
        "sf62user__manager__c"
      ]
    }
  },
  "User.Manager.Manager.Manager.Mgmt_Chain_Level_02": {
    "action": "augment",
    "parameters": {
      "operation": "LookupSingleValue",
      "left": "User.Manager.Manager.Manager",
      "left_key": [
        "User.Manager.Manager.Manager.Mgmt_Chain_Level_02__c"
      ],
      "relationship": "User.Manager.Manager.Manager.Mgmt_Chain_Level_02",
      "right": "sfdcDigest_User_5",
      "right_key": [
        "Id"
      ],
      "right_select": [
        "Name"
      ]
    }
  },
  "User.Manager.Manager.Manager.Manager": {
    "action": "augment",
    "parameters": {
      "operation": "LookupSingleValue",
      "left": "User.Manager.Manager.Manager.Mgmt_Chain_Level_02",
      "relationship": "User.Manager.Manager.Manager.Manager",
      "right": "sfdcDigest_User_5",
      "left_key": [
        "User.Manager.Manager.Manager.sf62user__manager__c"
      ],
      "right_key": [
        "Id"
      ],
      "right_select": [
        "sf62user__manager__c",
        "Mgmt_Chain_Level_02__c"
      ]
    }
  },
  "User.Manager.Manager.Manager.Manager.Mgmt_Chain_Level_02": {
    "action": "augment",
    "parameters": {
      "operation": "LookupSingleValue",
      "left": "User.Manager.Manager.Manager.Manager",
      "relationship": "User.Manager.Manager.Manager.Manager.Mgmt_Chain_Level_02",
      "right": "sfdcDigest_User_5",
      "left_key": [
        "User.Manager.Manager.Manager.Manager.Mgmt_Chain_Level_02__c"
      ],
      "right_key": [
        "Id"
      ],
      "right_select": [
        "Name"
      ]
    }
  },
  "slice_dataset": {
    "action": "sliceDataset",
    "parameters": {
      "mode": "drop",
      "fields": [
        {
          "name": "User.Manager.Manager.sf62user__manager__c"
        },
        {
          "name": "User.Manager.Manager.Manager.Manager.Mgmt_Chain_Level_02__c"
        },
        {
          "name": "User.Manager.Manager.Manager.Manager.sf62user__manager__c"
        },
        {
          "name": "User.Manager.Manager.Manager.Mgmt_Chain_Level_02__c"
        },
        {
          "name": "User.Manager.Manager.Manager.sf62user__manager__c"
        },
        {
          "name": "User.Manager.Manager.Mgmt_Chain_Level_02__c"
        }
      ],
      "source": "User.Manager.Manager.Manager.Manager.Mgmt_Chain_Level_02"
    }
  },
  "register_RBAC_User_5": {
    "action": "sfdcRegister",
    "parameters": {
      "source": "slice_dataset",
      "alias": "RBAC_User",
      "name": "RBAC_User"
    }
  },
  "User.Manager.Profile": {
    "action": "augment",
    "parameters": {
      "operation": "LookupSingleValue",
      "left": "User_Manager_RBAC",
      "left_key": [
        "Manager.ProfileId"
      ],
      "relationship": "User.Manager.Profile",
      "right": "sfdcDigest_Profile_5",
      "right_key": [
        "Id"
      ],
      "right_select": [
        "Name"
      ]
    }
  }
}