{
  "Augment_Child_Account_SIC_EMEA": {
    "action": "augment",
    "parameters": {
      "right_key": [
        "Id"
      ],
      "left": "Augment_Child_Opportunity_3_SIC_EMEA",
      "left_key": [
        "Account__c"
      ],
      "right_select": [
        "Subregion__c",
        "Region__c",
        "Name",
        "Industry",
        "Business_Sponsor__pc",
        "OwnerId",
        "ShippingCountry",
        "Ultimate_Parent_DUNS__c",
        "Account_Owner_Role__c"
      ],
      "right": "sfdcDigest_Account_SIC_EMEA",
      "relationship": "Account",
      "operation": "LookupSingleValue"
    }
  },
  "Augment_Child_Parent_SIC_EMEA": {
    "action": "augment",
    "parameters": {
      "right_key": [
        "Id"
      ],
      "left": "Filter_Child_SIC_EMEA",
      "left_key": [
        "Parent_EBC__c"
      ],
      "right_select": [
        "Briefing_Type__c",
        "Customer_Attendees__c",
        "Meeting_Display_Name__c",
        "Meeting_Location__c",
        "Meeting_Start_Date__c",
        "Meeting_Tier__c",
        "Name",
        "of_Days__c",
        "Primary_EBC_Focus__c",
        "RecordType.Name",
        "Requested_By_Name__c",
        "Requested_By__c",
        "SFDC_AVP_RVP__c",
        "Requested_Meeting_Topics__c",
        "Status__c"
      ],
      "right": "Filter_Parent_SIC_EMEA",
      "relationship": "Parent",
      "operation": "LookupSingleValue"
    }
  },
  "sfdcDigest_EBCMeeting_Child_SIC_EMEA": {
    "action": "sfdcDigest",
    "parameters": {
      "fields": [
        {
          "name": "Id"
        },
        {
          "name": "RecordTypeId"
        },
        {
          "name": "Account__c"
        },
        {
          "name": "Company_Name_Display__c"
        },
        {
          "name": "Total_Opportunity_Amount__c"
        },
        {
          "name": "Total_Opportunity_Closed_Amount__c"
        },
        {
          "name": "Opportunity_1_Closed_Amount__c"
        },
        {
          "name": "Opportunity_2_Closed_Amount__c"
        },
        {
          "name": "Opportunity_3_Closed_Amount__c"
        },
        {
          "name": "Opportunity__c"
        },
        {
          "name": "X2nd_Opportunity__c"
        },
        {
          "name": "X3rd_Opportunity__c"
        },
        {
          "name": "Parent_EBC__c"
        },
        {
          "name": "Name"
        },
        {
          "name": "Company__c"
        }
      ],
      "object": "EBC_Meeting__c"
    }
  },
  "sfdcDigest_Opportunity_SIC_EMEA": {
    "action": "sfdcDigest",
    "parameters": {
      "fields": [
        {
          "name": "StageName"
        },
        {
          "name": "Amount"
        },
        {
          "name": "AmountConverted__c"
        },
        {
          "name": "Name"
        },
        {
          "name": "Id"
        }
      ],
      "object": "Opportunity"
    }
  },
  "Augment_Child_Account_Owner_User_SIC_EMEA": {
    "action": "augment",
    "parameters": {
      "right_key": [
        "Id"
      ],
      "left": "Augment_Child_Company_SIC_EMEA",
      "left_key": [
        "Account.OwnerId"
      ],
      "right_select": [
        "Name",
        "Macro_Segment__c"
      ],
      "right": "sfdcDigest_User_SIC_EMEA",
      "relationship": "Account.Owner",
      "operation": "LookupSingleValue"
    }
  },
  "Filter_Child_SIC_EMEA": {
    "action": "filter",
    "parameters": {
      "source": "Augment_Child_RecordType_SIC_EMEA",
      "saqlFilter": "'RecordType.Name' in [\"Headquarters\", \"Dreamforce\", \"SIC - Global\"]"
    }
  },
  "Filter_Parent_SIC_EMEA": {
    "action": "filter",
    "parameters": {
      "source": "Augment_Parent_RecordType_SIC_EMEA",
      "saqlFilter": "'RecordType.Name' in [\"Parent Headquarters\", \"Parent Dreamforce\", \"SIC - Global\", \"Headquarters\", \"Dreamforce\"]"
    }
  },
  "sfdcDigest_Account_SIC_EMEA": {
    "action": "sfdcDigest",
    "parameters": {
      "fields": [
        {
          "name": "Name"
        },
        {
          "name": "Industry"
        },
        {
          "name": "Business_Sponsor__pc"
        },
        {
          "name": "Region__c"
        },
        {
          "name": "Subregion__c"
        },
        {
          "name": "Id"
        },
        {
          "name": "OwnerId"
        },
        {
          "name": "ShippingCountry"
        },
        {
          "name": "Ultimate_Parent_DUNS__c"
        },
        {
          "name": "Account_Owner_Role__c"
        }
      ],
      "object": "Account"
    }
  },
  "Augment_Child_User_RCM_SIC_EMEA": {
    "action": "augment",
    "parameters": {
      "right_key": [
        "Id"
      ],
      "left": "Augment_Child_Account_SIC_EMEA",
      "left_key": [
        "Parent.SFDC_AVP_RVP__c"
      ],
      "right_select": [
        "Name"
      ],
      "right": "sfdcDigest_User_SIC_EMEA",
      "relationship": "RequestCreatorManager",
      "operation": "LookupSingleValue"
    }
  },
  "sfdcDigest_Company_SIC_EMEA": {
    "action": "sfdcDigest",
    "parameters": {
      "fields": [
        {
          "name": "Name"
        },
        {
          "name": "Id"
        }
      ],
      "object": "Company__c"
    }
  },
  "Augment_Child_RecordType_SIC_EMEA": {
    "action": "augment",
    "parameters": {
      "right_key": [
        "Id"
      ],
      "left": "sfdcDigest_EBCMeeting_Child_SIC_EMEA",
      "left_key": [
        "RecordTypeId"
      ],
      "right_select": [
        "Name"
      ],
      "right": "sfdcDigest_RecordType_SIC_EMEA",
      "relationship": "RecordType",
      "operation": "LookupSingleValue"
    }
  },
  "sfdcDigest_RecordType_SIC_EMEA": {
    "action": "sfdcDigest",
    "parameters": {
      "fields": [
        {
          "name": "Name"
        },
        {
          "name": "Id"
        }
      ],
      "object": "RecordType"
    }
  },
  "Augment_Child_Company_SIC_EMEA": {
    "action": "augment",
    "parameters": {
      "right_key": [
        "Id"
      ],
      "left": "Augment_Child_User_RequestedBy_SIC_EMEA",
      "left_key": [
        "Company__c"
      ],
      "right_select": [
        "Name"
      ],
      "right": "sfdcDigest_Company_SIC_EMEA",
      "relationship": "Company",
      "operation": "LookupSingleValue"
    }
  },
  "Augment_Child_User_RequestedBy_SIC_EMEA": {
    "action": "augment",
    "parameters": {
      "right_key": [
        "Id"
      ],
      "left": "Augment_Child_User_RCM_SIC_EMEA",
      "left_key": [
        "Parent.Requested_By__c"
      ],
      "right_select": [
        "Name"
      ],
      "right": "sfdcDigest_User_SIC_EMEA",
      "relationship": "RequestedBy",
      "operation": "LookupSingleValue"
    }
  },
  "sfdcDigest_User_SIC_EMEA": {
    "action": "sfdcDigest",
    "parameters": {
      "fields": [
        {
          "name": "Name"
        },
        {
          "name": "Id"
        },
        {
          "name": "Macro_Segment__c"
        }
      ],
      "object": "User"
    }
  },
  "Augment_Child_Opportunity_3_SIC_EMEA": {
    "action": "augment",
    "parameters": {
      "right_key": [
        "Id"
      ],
      "left": "Augment_Child_Opportunity_2_SIC_EMEA",
      "left_key": [
        "X3rd_Opportunity__c"
      ],
      "right_select": [
        "Amount",
        "AmountConverted__c",
        "Name",
        "StageName"
      ],
      "right": "sfdcDigest_Opportunity_SIC_EMEA",
      "relationship": "X3rdOpportunity",
      "operation": "LookupSingleValue"
    }
  },
  "Augment_Child_Opportunity_1_SIC_EMEA": {
    "action": "augment",
    "parameters": {
      "right_key": [
        "Id"
      ],
      "left": "Filter_SpecificLocations_SIC_EMEA",
      "left_key": [
        "Opportunity__c"
      ],
      "right_select": [
        "Amount",
        "AmountConverted__c",
        "Name",
        "StageName"
      ],
      "right": "sfdcDigest_Opportunity_SIC_EMEA",
      "relationship": "Opportunity1",
      "operation": "LookupSingleValue"
    }
  },
  "Compute_Child_Account_Owner_Segment_SIC_EMEA": {
    "action": "computeExpression",
    "parameters": {
      "source": "Augment_Child_Account_Owner_User_SIC_EMEA",
      "mergeWithSource": true,
      "computedFields": [
        {
          "name": "Segment_Bucket",
          "saqlExpression": "case \nwhen 'Account.Account_Owner_Role__c' == \"AMER - BD - ALL\" then \"event\"\nwhen ('Account.Account_Owner_Role__c' matches \"ISV\" || 'Account.Account_Owner_Role__c' matches  \"Partner\") then \"Partner\"\nwhen ('Account.Account_Owner_Role__c' == \"EMEA - PS - PBU2 - UKI\" || 'Account.Account_Owner_Role__c' == \"EMEA - FS - UKI - SERVICES - PS\") then \"Public Sector\"\nwhen starts_with('Account.Account_Owner_Role__c',\"EMEA - CS - ESMB - UK\") then \"ESMB\"\nwhen starts_with('Account.Account_Owner_Role__c',\"EMEA - CS - UKI\") then \"CBU\"\nwhen (starts_with('Account.Account_Owner_Role__c',\"EMEA - FS - UKI\") || starts_with('Account.Account_Owner_Role__c',\"EMEA - UKI - FINS\")) then \"EBU\"\nwhen starts_with('Account.Account_Owner_Role__c',\"EMEA - NP - NGO\") then \"Non-Profit\"\nwhen starts_with('Account.Account_Owner_Role__c',\"AMER\") then \"AMER account\"\nwhen starts_with('Account.Account_Owner_Role__c',\"EMEA\") then \"EMEA account\"\nelse \"other\"\nend",
          "label": "Segment_Bucket",
          "type": "Text"
        }
      ]
    }
  },
  "Augment_Parent_RecordType_SIC_EMEA": {
    "action": "augment",
    "parameters": {
      "right_key": [
        "Id"
      ],
      "left": "sfdcDigest_EBCMeeting_Parent_SIC_EMEA",
      "left_key": [
        "RecordTypeId"
      ],
      "right_select": [
        "Name"
      ],
      "right": "sfdcDigest_RecordType_SIC_EMEA",
      "relationship": "RecordType",
      "operation": "LookupSingleValue"
    }
  },
  "Filter_SpecificLocations_SIC_EMEA": {
    "action": "filter",
    "parameters": {
      "source": "Augment_Child_Parent_SIC_EMEA",
      "saqlFilter": "'Parent.Meeting_Location__c' in [\"AMER SIC\", \"Amsterdam EBC\", \"London EBC\", \"Munich EBC\", \"Paris EBC\", \"SF HQ\", \"NYC SIC\", \"Tokyo EBC\", \"Sydney Briefing Centre\", \"Virtual AMER SIC\"] || 'Parent.Meeting_Location__c' is null || 'Parent.Meeting_Location__c' == \"\""
    }
  },
  "Augment_Child_Opportunity_2_SIC_EMEA": {
    "action": "augment",
    "parameters": {
      "right_key": [
        "Id"
      ],
      "left": "Augment_Child_Opportunity_1_SIC_EMEA",
      "left_key": [
        "X2nd_Opportunity__c"
      ],
      "right_select": [
        "Amount",
        "AmountConverted__c",
        "Name",
        "StageName"
      ],
      "right": "sfdcDigest_Opportunity_SIC_EMEA",
      "relationship": "XndOpportunity",
      "operation": "LookupSingleValue"
    }
  },
  "Register_EBC_Meeting_SIC_EMEA": {
    "action": "sfdcRegister",
    "parameters": {
      "name": "SIC_Meeting_Details",
      "alias": "SIC_Meeting_Details",
      "source": "Compute_Child_Account_Owner_Segment_SIC_EMEA"
    }
  },
  "sfdcDigest_EBCMeeting_Parent_SIC_EMEA": {
    "action": "sfdcDigest",
    "parameters": {
      "fields": [
        {
          "name": "Meeting_Display_Name__c"
        },
        {
          "name": "Name"
        },
        {
          "name": "Id"
        },
        {
          "name": "RecordTypeId"
        },
        {
          "name": "Requested_By_Name__c"
        },
        {
          "name": "Requested_By__c"
        },
        {
          "name": "SFDC_AVP_RVP__c"
        },
        {
          "fiscalMonthOffset": 1,
          "name": "Meeting_Start_Date__c"
        },
        {
          "name": "Meeting_Tier__c"
        },
        {
          "name": "of_Days__c"
        },
        {
          "name": "Meeting_Location__c"
        },
        {
          "name": "Briefing_Type__c"
        },
        {
          "name": "Primary_EBC_Focus__c"
        },
        {
          "name": "Requested_Meeting_Topics__c"
        },
        {
          "name": "Customer_Attendees__c"
        },
        {
          "name": "Status__c"
        }
      ],
      "object": "EBC_Meeting__c"
    }
  }
}