{
  "filter_team": {
    "action": "filter",
    "parameters": {
      "source": "opportunity_team",
      "saqlFilter": "'sfbase__EndDate__c' is null"
    }
  },
  "register_opportunity_product": {
    "action": "sfdcRegister",
    "parameters": {
      "name": "SFDO Opportunity Team",
      "alias": "register_opp_prod",
      "source": "filter_nonprofit"
    }
  },
  "append_oppty": {
    "action": "augment",
    "parameters": {
      "right_key": [
        "Id"
      ],
      "left": "filter_team",
      "left_key": [
        "sfbase__Opportunity__c"
      ],
      "right_select": [
        "AccountId",
        "OwnerId"
      ],
      "right": "sfdcDigest_oppty",
      "relationship": "opportunity__c",
      "operation": "LookupSingleValue"
    }
  },
  "sfdcDigest_Account": {
    "action": "sfdcDigest",
    "parameters": {
      "fields": [
        {
          "name": "Non_Profit_Account__c"
        },
        {
          "name": "Id"
        },
        {
          "name": "Account_Owner_Role__c"
        },
        {
          "name": "OwnerId"
        },
        {
          "name": "Team_Territory__c"
        }
      ],
      "object": "Account"
    }
  },
  "filter_nonprofit": {
    "action": "filter",
    "parameters": {
      "source": "augment_acc",
      "saqlFilter": "'accId.Non_Profit_Account__c' == \"true\""
    }
  },
  "sfdcDigest_oppty": {
    "action": "sfdcDigest",
    "parameters": {
      "fields": [
        {
          "name": "AccountId"
        },
        {
          "name": "Id"
        },
        {
          "name": "OwnerId"
        }
      ],
      "object": "Opportunity"
    }
  },
  "augment_acc": {
    "action": "augment",
    "parameters": {
      "right_key": [
        "Id"
      ],
      "left": "append_oppty",
      "left_key": [
        "opportunity__c.AccountId"
      ],
      "right_select": [
        "Account_Owner_Role__c",
        "OwnerId",
        "Non_Profit_Account__c",
        "Team_Territory__c",
        "Id"
      ],
      "right": "sfdcDigest_Account",
      "relationship": "accId",
      "operation": "LookupSingleValue"
    }
  },
  "opportunity_team": {
    "action": "sfdcDigest",
    "parameters": {
      "fields": [
        {
          "name": "sfbase__Opportunity__c"
        },
        {
          "name": "sfbase__User__c"
        },
        {
          "name": "sfbase__TeamRole__c"
        },
        {
          "name": "Name"
        },
        {
          "name": "sfbase__StartDate__c"
        },
        {
          "name": "sfbase__EndDate__c"
        },
        {
          "name": "sfbase__OpptyOwner__c"
        },
        {
          "name": "sfbase__CompValidationRole__c"
        },
        {
          "name": "sfbase__Source__c"
        },
        {
          "name": "sfbase__TerritoryException__c"
        },
        {
          "name": "sfbase__SplitPercent__c"
        },
        {
          "name": "sfbase__LevelOfAccess__c"
        },
        {
          "name": "Territory__c"
        },
        {
          "name": "LastModifiedById"
        },
        {
          "name": "TeamRoleLookup__c"
        },
        {
          "name": "sfbase__Validated__c"
        },
        {
          "name": "User_Role__c"
        },
        {
          "name": "CreatedById"
        },
        {
          "name": "User_Is_Active__c"
        },
        {
          "name": "Est_Split_Amount__c"
        },
        {
          "name": "Opportunity_Split_Value__c"
        },
        {
          "name": "CreatedDate"
        },
        {
          "name": "HoldoutDate__c"
        },
        {
          "name": "Id"
        },
        {
          "name": "IsDeleted"
        },
        {
          "name": "IsLocked"
        },
        {
          "name": "LastModifiedDate"
        },
        {
          "name": "MayEdit"
        },
        {
          "name": "sfbase__CompOwnerRole__c"
        },
        {
          "name": "sfbase__DealRole__c"
        },
        {
          "name": "sfbase__Division__c"
        },
        {
          "name": "sfbase__EligibleForRenewalComp__c"
        },
        {
          "name": "sfbase__Exclude__c"
        },
        {
          "name": "sfbase__MarketSegment__c"
        },
        {
          "name": "sfbase__Primary__c"
        },
        {
          "name": "sfbase__TeamProcessExclude__c"
        },
        {
          "name": "sfbase__TeamQuota__c"
        }
      ],
      "object": "sfbase__OpportunityTeam__c"
    }
  }
}