{
  "Extract_PricebookEntry": {
    "action": "sfdcDigest",
    "parameters": {
      "fields": [
        {
          "name": "Id"
        },
        {
          "name": "Product2Id"
        }
      ],
      "fullRefreshToken": "8-9-2016",
      "object": "PricebookEntry"
    }
  },
  "ComputeFields_OpptyProductPTBJoinKey": {
    "action": "computeExpression",
    "parameters": {
      "computedFields": [
        {
          "name": "AccountProductFamily",
          "saqlExpression": "'Opportunity.AccountId' + \"_\" + 'Product.Family'",
          "type": "Text"
        }
      ],
      "mergeWithSource": true,
      "source": "Join_OpportunityProductPricebookEntryProductOpportunity"
    }
  },
  "Extract_Opportunity": {
    "action": "sfdcDigest",
    "parameters": {
      "fields": [
        {
          "name": "Id"
        },
        {
          "name": "AccountId"
        },
        {
          "name": "OwnerId"
        },
        {
          "name": "Name"
        },
        {
          "name": "StageName"
        },
        {
          "name": "LeadSource"
        },
        {
          "name": "IsWon"
        },
        {
          "name": "Type"
        },
        {
          "name": "RecordTypeId"
        },
        {
          "name": "IsClosed"
        },
        {
          "name": "ForecastCategory"
        },
        {
          "name": "ForecastCategoryName"
        },
        {
          "fiscalMonthOffset": 1,
          "isYearEndFiscalYear": true,
          "name": "CreatedDate"
        },
        {
          "fiscalMonthOffset": 1,
          "isYearEndFiscalYear": true,
          "name": "CloseDate"
        },
        {
          "fiscalMonthOffset": 1,
          "isYearEndFiscalYear": true,
          "name": "LastModifiedDate"
        },
        {
          "name": "AmountConverted__c"
        },
        {
          "name": "Amount"
        },
        {
          "name": "CreatedById"
        },
        {
          "name": "Segment__c"
        },
        {
          "name": "Salesforce_Exec_Sponsor__c"
        },
        {
          "name": "Executive_Sponsor__c"
        },
        {
          "name": "Marc_Team_Champion__c"
        },
        {
          "name": "Dead_Reason__c"
        },
        {
          "name": "PrimaryCompetitor__c"
        },
        {
          "name": "X30_Day_Extension__c"
        },
        {
          "name": "Next_Steps__c"
        },
        {
          "name": "Manager_Notes__c"
        },
        {
          "name": "sfbase__PriorAnnualContractValue__c"
        },
        {
          "name": "Manager_Forecast_Judgement__c"
        },
        {
          "name": "LastActivityDate"
        },
        {
          "fiscalMonthOffset": 1,
          "isYearEndFiscalYear": true,
          "name": "Stage_2_Flag__c"
        },
        {
          "name": "Contract_End_Date__c"
        },
        {
          "name": "sfbase__Contract_EndDate__c"
        },
        {
          "name": "Lead_Sales_Partner_Role__c"
        },
        {
          "name": "Lead_Sales_Partner_new__c"
        },
        {
          "name": "Implementation_Partner_new__c"
        },
        {
          "name": "Reseller_Partner_Type__c"
        },
        {
          "name": "Reseller_Partner__c"
        },
        {
          "name": "SE_Involved__c"
        },
        {
          "name": "SE_Attached__c"
        },
        {
          "name": "Original_Opportunity_Owner_Role__c"
        },
        {
          "name": "Opportunity_Source__c"
        },
        {
          "name": "Deal_Sponsor__c"
        }
      ],
      "fullRefreshToken": "8-9-2016",
      "object": "Opportunity",
      "complexFilterConditions": "CloseDate > 2016-01-01"
    }
  },
  "joinSecPred2": {
    "action": "augment",
    "parameters": {
      "operation": "LookupSingleValue",
      "relationship": "sec2",
      "left": "joinSecurityPredicate",
      "right": "country_pred",
      "left_key": [
        "Account.BillingCountry"
      ],
      "right_key": [
        "PRED_VAL"
      ],
      "right_select": [
        "PRED_KEY"
      ]
    }
  },
  "Join_AccountDWH": {
    "action": "augment",
    "parameters": {
      "operation": "LookupSingleValue",
      "relationship": "Account",
      "left": "ComputeFields_Account",
      "right": "Extract_aw_account",
      "left_key": [
        "Id"
      ],
      "right_key": [
        "ID"
      ],
      "right_select": [
        "CSM_ID_PATH",
        "GLOBAL_CO_NM",
        "SFDC_TEAM_USR_ID",
        "CURR_ACC_AOV",
        "USR_ROLE_NM"
      ]
    }
  },
  "Extract_Product": {
    "action": "sfdcDigest",
    "parameters": {
      "fields": [
        {
          "name": "Id"
        },
        {
          "name": "ProductCode"
        },
        {
          "name": "Name"
        },
        {
          "name": "Family"
        },
        {
          "name": "sfbase__SKU__c"
        },
        {
          "name": "L1_Business_Line__c"
        },
        {
          "name": "L2_Product_Line__c"
        },
        {
          "name": "L3_Product_Family__c"
        },
        {
          "name": "L4_Product_Offering__c"
        }
      ],
      "fullRefreshToken": "8-9-2016",
      "object": "Product2"
    }
  },
  "Extract_User": {
    "action": "sfdcDigest",
    "parameters": {
      "fields": [
        {
          "name": "Id"
        },
        {
          "name": "Username"
        },
        {
          "name": "EmployeeNumber"
        },
        {
          "name": "ManagerId"
        },
        {
          "name": "Mgmt_Chain_Level_06__c"
        },
        {
          "name": "Mgmt_Chain_Level_07__c"
        },
        {
          "name": "FullPhotoUrl"
        },
        {
          "name": "SmallPhotoUrl"
        },
        {
          "name": "Name"
        }
      ],
      "fullRefreshToken": "6-6-2017",
      "object": "User"
    }
  },
  "Slice_duplicate_unique": {
    "action": "sliceDataset",
    "parameters": {
      "fields": [
        {
          "name": "IsDuplicate"
        },
        {
          "name": "uniqueID"
        }
      ],
      "mode": "drop",
      "source": "Filter_Duplicate"
    }
  },
  "Join_OpportunityOwner_OpportunityTeam": {
    "action": "augment",
    "parameters": {
      "operation": "LookupMultiValue",
      "relationship": "OpportunityTeam",
      "left": "Join_OpportunityOwner",
      "right": "Join_OpportunityTeamOwner",
      "left_key": [
        "Id"
      ],
      "right_key": [
        "sfbase__Opportunity__c"
      ],
      "right_select": [
        "sfbase__User__c",
        "User.USR_NM",
        "User.NameUsername",
        "User.MgrNameUsername",
        "User.FORCST_USR_ID_PATH",
        "User.FORCST_USR_NM_PATH",
        "User.FORCST_MGR_USR_ID",
        "User.FORCST_MGR_USR_NM",
        "User.MGT_USR_ID_PATH",
        "User.MGT_USR_NM_PATH",
        "User.MGR_USR_ID",
        "User.MGR_USR_NM"
      ]
    }
  },
  "CK_Extract_CountryCodes": {
    "action": "edgemart",
    "parameters": {
      "alias": "CountryCodes"
    }
  },
  "Filter_Duplicate": {
    "action": "filter",
    "parameters": {
      "filter": "IsDuplicate:EQ:True",
      "source": "Compute_duplicate"
    }
  },
  "Extract_RecordType": {
    "action": "sfdcDigest",
    "parameters": {
      "fields": [
        {
          "name": "Id"
        },
        {
          "name": "Name"
        }
      ],
      "fullRefreshToken": "8-9-2016",
      "object": "RecordType"
    }
  },
  "Augement_EBC_AccountOwnerRole": {
    "action": "augment",
    "parameters": {
      "operation": "LookupSingleValue",
      "relationship": "Account",
      "left": "Extract_EBC_Meeting",
      "right": "sfdcDigest_Account",
      "left_key": [
        "Account__c"
      ],
      "right_key": [
        "Id"
      ],
      "right_select": [
        "OwnerId",
        "Account_Owner_Role__c",
        "Name"
      ]
    }
  },
  "Extract_aw_account": {
    "action": "edgemart",
    "parameters": {
      "alias": "aw_account"
    }
  },
  "Join_OpportunityProductPricebookEntry": {
    "action": "augment",
    "parameters": {
      "relationship": "Pricebook",
      "left": "Extract_OpportunityLineItem",
      "right": "Extract_PricebookEntry",
      "left_key": [
        "PricebookEntryId"
      ],
      "right_key": [
        "Id"
      ],
      "right_select": [
        "Product2Id"
      ]
    }
  },
  "Register_OpportunityProducts": {
    "action": "sfdcRegister",
    "parameters": {
      "name": "Oppty Products",
      "source": "ComputeFields_OpptyProduct",
      "alias": "WaveAE_2_OpportunityProducts"
    }
  },
  "CK_Register_Marc_UserManager": {
    "action": "sfdcRegister",
    "parameters": {
      "name": "Big Deals User Manager",
      "source": "ComputeFields_User",
      "alias": "Marc_UserManager"
    }
  },
  "sfdcDigest_User_Dataflow": {
    "action": "sfdcDigest",
    "parameters": {
      "fields": [
        {
          "name": "Name"
        },
        {
          "name": "Id"
        },
        {
          "name": "FirstName"
        }
      ],
      "object": "User"
    }
  },
  "Register_UserManager": {
    "action": "sfdcRegister",
    "parameters": {
      "name": "User Manager",
      "source": "ComputeFields_User",
      "alias": "WaveAE_2_UserManager"
    }
  },
  "Extract_EBC_Meeting": {
    "action": "sfdcDigest",
    "parameters": {
      "fields": [
        {
          "name": "Account__c"
        },
        {
          "name": "Account_Owner__c"
        },
        {
          "name": "Assistance_Type__c"
        },
        {
          "name": "Briefing_Type__c"
        },
        {
          "name": "Building_Location__c"
        },
        {
          "name": "Child_Campaign__c"
        },
        {
          "name": "Company_Name_Display__c"
        },
        {
          "name": "Company__c"
        },
        {
          "name": "CreatedDate"
        },
        {
          "name": "Create_Campaign__c"
        },
        {
          "name": "Customer_Attendees__c"
        },
        {
          "name": "Customer_Attendee_List__c"
        },
        {
          "name": "Customer_Executives__c"
        },
        {
          "name": "Customer_Goals__c"
        },
        {
          "name": "Days_to_EBC_Meeting__c"
        },
        {
          "name": "Id"
        },
        {
          "name": "First_Date_End_Time__c"
        },
        {
          "name": "First_Date_Start_Time__c"
        },
        {
          "name": "Estimated_Attendee_Count__c"
        },
        {
          "name": "Initial_Vision_for_Agenda__c"
        },
        {
          "name": "IsDeleted"
        },
        {
          "name": "IsLocked"
        },
        {
          "name": "Key_Highlights__c"
        },
        {
          "name": "LastActivityDate"
        },
        {
          "name": "LastModifiedById"
        },
        {
          "name": "LastModifiedDate"
        },
        {
          "name": "LastReferencedDate"
        },
        {
          "name": "LastViewedDate"
        },
        {
          "name": "Logo_Image__c"
        },
        {
          "name": "MayEdit"
        },
        {
          "name": "Meeting_Display_Name__c"
        },
        {
          "name": "Meeting_End_Date__c"
        },
        {
          "name": "Meeting_Location__c"
        },
        {
          "name": "Meeting_Overview__c"
        },
        {
          "name": "Meeting_Room__c"
        },
        {
          "name": "Meeting_Start_Date__c"
        },
        {
          "name": "Meeting_Tier_Reason__c"
        },
        {
          "name": "Meeting_Tier__c"
        },
        {
          "name": "Meeting_Timezone__c"
        },
        {
          "name": "Meeting_Type_Pill__c"
        },
        {
          "name": "Name"
        },
        {
          "name": "of_Days__c"
        },
        {
          "name": "Opportunity_1_Amount__c"
        },
        {
          "name": "Opportunity_1_Closed_Amount__c"
        },
        {
          "name": "Opportunity_2_Amount__c"
        },
        {
          "name": "Opportunity_2_Closed_Amount__c"
        },
        {
          "name": "Opportunity_3_Amount__c"
        },
        {
          "name": "X3rd_Opportunity__c"
        },
        {
          "name": "X2nd_Opportunity__c"
        },
        {
          "name": "Total_Opportunity_Closed_Amount__c"
        },
        {
          "name": "Total_Opportunity_Amount__c"
        },
        {
          "name": "Top_30__c"
        },
        {
          "name": "Third_Date__c"
        },
        {
          "name": "Third_Date_Start_Time__c"
        },
        {
          "name": "Third_Date_End_Time__c"
        },
        {
          "name": "SystemModstamp"
        },
        {
          "name": "Strategist_Notes__c"
        },
        {
          "name": "SFDC_AVP_RVP__c"
        },
        {
          "name": "Status__c"
        },
        {
          "name": "Second_Date__c"
        },
        {
          "name": "Second_Date_Start_Time__c"
        },
        {
          "name": "Second_Date_End_Time__c"
        },
        {
          "name": "Salesforce_Speakers__c"
        },
        {
          "name": "Salesforce_Goals__c"
        },
        {
          "name": "Salesforce_Executives__c"
        },
        {
          "name": "Salesforce_Executives_Amount__c"
        },
        {
          "name": "Requested_Meeting_Topics__c"
        },
        {
          "name": "Requested_By__c"
        },
        {
          "name": "Requested_By_Name__c"
        },
        {
          "name": "RecordTypeId"
        },
        {
          "name": "Primary_EBC_Focus__c"
        },
        {
          "name": "Parent_EBC__c"
        },
        {
          "name": "Parent_Campaign__c"
        },
        {
          "name": "OwnerId"
        },
        {
          "name": "Opportunity__c"
        },
        {
          "name": "Opportunity_3_Closed_Amount__c"
        },
        {
          "name": "Meeting_Date_AVP_Approved__c"
        }
      ],
      "object": "EBC_Meeting__c"
    }
  },
  "sfdcDigest_DSR": {
    "action": "sfdcDigest",
    "parameters": {
      "fields": [
        {
          "name": "Id"
        },
        {
          "name": "Opportunity__c"
        },
        {
          "name": "RecordTypeId"
        },
        {
          "name": "Oppty_Owner_Role__c"
        },
        {
          "name": "Owner_Role_Name__c"
        },
        {
          "name": "Account_Owner_Role__c"
        },
        {
          "name": "Opportunity_Owner__c"
        },
        {
          "name": "Stage__c"
        },
        {
          "name": "Oppty_Stage__c"
        },
        {
          "name": "Oppty_Close_Date__c"
        },
        {
          "name": "CreatedDate"
        },
        {
          "name": "Oppty_Amount__c"
        },
        {
          "name": "Start_Date__c"
        },
        {
          "name": "Status__c"
        },
        {
          "name": "Name"
        },
        {
          "name": "Days_to_EBC_Meeting__c"
        },
        {
          "name": "Ignite_Request_Type__c"
        },
        {
          "name": "Explain_the_prospects_Cloud_2_Vision__c"
        }
      ],
      "object": "Deal_Support_Request__c"
    }
  },
  "region_pred": {
    "action": "filter",
    "parameters": {
      "saqlFilter": "'PRED_TYPE' == \"REGION\"",
      "source": "securityPredicates"
    }
  },
  "ComputeFields_Account": {
    "action": "computeExpression",
    "parameters": {
      "computedFields": [
        {
          "name": "Dataset_Access",
          "saqlExpression": "\"View All,View All Bookings\"",
          "type": "Text"
        }
      ],
      "mergeWithSource": true,
      "source": "Join_Account_Company"
    }
  },
  "Extract_OpportunityTeam": {
    "action": "sfdcDigest",
    "parameters": {
      "fields": [
        {
          "name": "Id"
        },
        {
          "name": "sfbase__Opportunity__c"
        },
        {
          "name": "sfbase__CompValidationRole__c"
        },
        {
          "name": "sfbase__Source__c"
        },
        {
          "name": "sfbase__SplitPercent__c"
        },
        {
          "name": "sfbase__User__c"
        },
        {
          "name": "sfbase__TeamRole__c"
        },
        {
          "name": "Est_Split_Amount__c"
        },
        {
          "name": "Opportunity_Split_Value__c"
        },
        {
          "name": "TeamRoleLookup__c"
        }
      ],
      "fullRefreshToken": "8-9-2016",
      "object": "sfbase__OpportunityTeam__c",
      "complexFilterConditions": "CreatedDate > 2016-01-01T00:00:00.000Z AND sfbase__EndDate__c = null"
    }
  },
  "sfdcDigest_DataflowInstance": {
    "action": "sfdcDigest",
    "parameters": {
      "fields": [
        {
          "name": "DataflowVersionId"
        },
        {
          "name": "DataflowStatus"
        },
        {
          "name": "EndTime"
        },
        {
          "name": "Message"
        },
        {
          "name": "ExecutionStartTime"
        },
        {
          "name": "StartTime"
        },
        {
          "name": "Id"
        },
        {
          "name": "LastModifiedById"
        }
      ],
      "object": "DataflowInstance"
    }
  },
  "Register_UserRole": {
    "action": "sfdcRegister",
    "parameters": {
      "name": "User Role",
      "source": "ComputeFields_User",
      "alias": "WaveAE_2_UserRole"
    }
  },
  "Filter_opportunityCloseDate": {
    "action": "filter",
    "parameters": {
      "filter": "CloseDate_Year:R:2017",
      "source": "Extract_Opportunity"
    }
  },
  "ComputeFields_PTB": {
    "action": "computeExpression",
    "parameters": {
      "computedFields": [
        {
          "name": "Dataset_Access",
          "saqlExpression": "\"View All,View All Bookings\"",
          "type": "Text"
        },
        {
          "name": "AccountProductFamily",
          "saqlExpression": "Account_ID_18 + \"_\" + Product_Family",
          "type": "Text"
        }
      ],
      "mergeWithSource": true,
      "source": "Extract_PTB"
    }
  },
  "Compute_Oppty_Owner_role_Id": {
    "action": "computeExpression",
    "parameters": {
      "computedFields": [
        {
          "label": "Oppty Owner Role - Cloud",
          "name": "Owner_USR_ROLE_NM",
          "saqlExpression": "case when starts_with('Owner.USR_ROLE_NM',\"MC -\") then \"MC\" \nwhen starts_with('Owner.USR_ROLE_NM',\"CC -\") \nthen \"CC\" \nwhen starts_with('Owner.USR_ROLE_NM',\"MS -\") \nthen \"MS\" \nelse \"Core\" \nend ",
          "type": "Text"
        },
        {
          "label": "SEC_PRED_USER_ID_PATH_DS_1",
          "name": "SEC_PRED_USER_ID_PATH_DS_1",
          "saqlExpression": "case \nwhen (!('StageName' matches \"Dead\") and !('StageName' matches \"01\") and ('ForecastCategoryName' != \"Omitted\") ) and ('StageName' matches \"Close\" or 'ForecastCategoryName' == \"Closed\") \n\nthen \"ACV:\"+'sec.PRED_KEY'\n\nwhen (!('StageName' matches \"Dead\") and !('StageName' matches \"01\") and ('ForecastCategoryName' != \"Omitted\") and ('ForecastCategoryName' != \"Closed\") and !('StageName' matches \"Close\")) \n\nthen \"OP:\"+'sec.PRED_KEY' \n\nwhen !('StageName' matches \"01\") and !('StageName' matches \"Dead- Dup\") and !('StageName' matches \"Dead - Dup\") and (Stage_2_Flag__c is not null) \n\nthen \"PG:\"+'sec.PRED_KEY'\n\nelse \"Null\"\n\nend",
          "type": "Text"
        },
        {
          "label": "SEC_PRED_USER_ID_PATH_DS_2",
          "name": "SEC_PRED_USER_ID_PATH_DS_2",
          "saqlExpression": "case \nwhen (!(StageName matches \"Dead\") and !(StageName matches \"01\") and (ForecastCategoryName != \"Omitted\") ) and (StageName matches \"Close\" or ForecastCategoryName == \"Closed\") \n\nthen \"ACV:\"+'sec2.PRED_KEY' \n\nwhen (!(StageName matches \"Dead\") and !(StageName matches \"01\") and (ForecastCategoryName != \"Omitted\") and (ForecastCategoryName != \"Closed\") and !(StageName matches \"Close\")) \n\nthen \"OP:\"+'sec2.PRED_KEY' \n\nwhen !('StageName' matches \"01\") and !('StageName' matches \"Dead- Dup\") and !('StageName' matches \"Dead - Dup\") and (Stage_2_Flag__c is not null) \n\nthen \"PG:\"+'sec2.PRED_KEY'\n\nelse \"Null\"\n\nend",
          "type": "Text"
        },
        {
          "label": "SEC_PRED_USER_ID_PATH_DS_3",
          "name": "SEC_PRED_USER_ID_PATH_DS_3",
          "saqlExpression": "'sec.PRED_KEY'+\"-\"+'sec2.PRED_KEY'",
          "type": "Text"
        },
        {
          "label": "SEC_PRED_USER_ID_PATH_DS_4",
          "name": "SEC_PRED_USER_ID_PATH_DS_4",
          "saqlExpression": "'sec2.PRED_KEY'+\"-\"+'sec.PRED_KEY'",
          "type": "Text"
        }
      ],
      "mergeWithSource": true,
      "source": "joinSecPred2"
    }
  },
  "Augment_DSR_RecordType": {
    "action": "augment",
    "parameters": {
      "operation": "LookupSingleValue",
      "relationship": "RecordType",
      "left": "Augment_DSR_Opportunity",
      "right": "sfdcdigest_RecordType",
      "left_key": [
        "RecordTypeId"
      ],
      "right_key": [
        "Id"
      ],
      "right_select": [
        "Name"
      ]
    }
  },
  "securityPredicates": {
    "action": "edgemart",
    "parameters": {
      "alias": "WRK_SALES_SEC_PRED_KEYS"
    }
  },
  "Extract_UserDirectHierarchy": {
    "action": "edgemart",
    "parameters": {
      "alias": "UserDirectHierarchy"
    }
  },
  "sfdcdigest_RecordType": {
    "action": "sfdcDigest",
    "parameters": {
      "fields": [
        {
          "name": "Id"
        },
        {
          "name": "Name"
        }
      ],
      "object": "RecordType"
    }
  },
  "Extract_OpportunityLineItem": {
    "action": "sfdcDigest",
    "parameters": {
      "fields": [
        {
          "name": "OpportunityId"
        },
        {
          "name": "ProductCode"
        },
        {
          "name": "ListPrice"
        },
        {
          "name": "Quantity"
        },
        {
          "name": "Adjusted_Total_price__c"
        },
        {
          "name": "PricebookEntryId"
        }
      ],
      "fullRefreshToken": "8-9-2016",
      "object": "OpportunityLineItem",
      "complexFilterConditions": "CreatedDate > 2016-01-01T00:00:00.000Z"
    }
  },
  "Transform_3_DataflowStatus": {
    "action": "computeExpression",
    "parameters": {
      "computedFields": [
        {
          "label": "Job Status textBucket",
          "name": "DataflowStatus_textBucket",
          "saqlExpression": "case when 'DataflowStatus' == \"Success\" then \"Success\" when 'DataflowStatus' == \"Warnings\" then \"Success\" when 'DataflowStatus' == \"Failed\" then \"Failed\" when 'DataflowStatus' == \"Cancelled\" then \"Failed\" else \"Other\" end",
          "type": "Text"
        }
      ],
      "mergeWithSource": true,
      "source": "Augment_3"
    }
  },
  "ComputeFields_OpptyProduct": {
    "action": "computeExpression",
    "parameters": {
      "computedFields": [
        {
          "name": "Dataset_Access",
          "saqlExpression": "\"View All,View All Bookings\"",
          "type": "Text"
        }
      ],
      "mergeWithSource": true,
      "source": "Join_OpportunityProduct_PTB"
    }
  },
  "Register_EBC_Meeting": {
    "action": "sfdcRegister",
    "parameters": {
      "name": "EAS_EBC_Meeting",
      "source": "Filter_KSC_Region",
      "alias": "EAS_EBC_Meeting"
    }
  },
  "CK_Register_Marc_Opportunity": {
    "action": "sfdcRegister",
    "parameters": {
      "name": "Big Deals Opportunity",
      "source": "Augment_Opportunit_User_Deal_Sponsor_Name",
      "alias": "Marc_BigDeals_Opportunity"
    }
  },
  "Join_OpportunityTeamOwner": {
    "action": "augment",
    "parameters": {
      "operation": "LookupSingleValue",
      "relationship": "User",
      "left": "ComputeFields_OpportunityTeam",
      "right": "ComputeFields_User",
      "left_key": [
        "sfbase__User__c"
      ],
      "right_key": [
        "USR_ID"
      ],
      "right_select": [
        "MGT_USR_NM_PATH",
        "FORCST_MGR_USR_ID",
        "FORCST_USR_ID_PATH",
        "USR_ROLE_NM",
        "MGR_USR_ID",
        "MGR_USR_ROLE_ID",
        "MGT_USR_ID_PATH",
        "FORCST_PRXY_USR_NM_PATH",
        "FORCST_PRXY_USR_ID_PATH",
        "SE_ROLE_NM_PATH",
        "FORCST_USR_NM_PATH",
        "MACRO_SEG_NM",
        "FORCST_MGR_USR_NM",
        "FORCST_USR_ROLE_ID_PATH",
        "MGR_USR_ROLE_NM",
        "SE_ROLE_ID_PATH",
        "USR_NM",
        "USR_ROLE_ID",
        "FORCST_USR_ROLE_NM_PATH",
        "MGR_USR_NM",
        "PARENTHETICAL_USR_FLG",
        "NameUsername",
        "MgrNameUsername",
        "User.Name"
      ]
    }
  },
  "Update_UserDirectHierarchy": {
    "action": "update",
    "parameters": {
      "left": "Extract_UserDirectHierarchy",
      "right": "Extract_New_UserDirectHierarchy",
      "update_columns": {
        "FORCST_ENABLED_FLG": "FORCST_ENABLED_FLG",
        "FORCST_USR_FLG": "FORCST_USR_FLG"
      },
      "left_key": [
        "USR_ID"
      ],
      "right_key": [
        "USR_ID"
      ]
    }
  },
  "Augment_EBC_Parent_EBC": {
    "action": "augment",
    "parameters": {
      "operation": "LookupSingleValue",
      "relationship": "ParentEBC",
      "left": "Augement_EBC_AccountOwnerRole",
      "right": "Extract_EBC_Meeting",
      "left_key": [
        "Parent_EBC__c"
      ],
      "right_key": [
        "Id"
      ],
      "right_select": [
        "Name",
        "OwnerId"
      ]
    }
  },
  "Register_Opportunity": {
    "action": "sfdcRegister",
    "parameters": {
      "name": "Opportunities",
      "source": "Compute_Oppty_Owner_role_Id",
      "alias": "WaveAE_2_Opportunity"
    }
  },
  "Filter_KSC_Region": {
    "action": "filter",
    "parameters": {
      "saqlFilter": "'KSC_Region' != \"Others\"",
      "source": "Compute_KSC_Region"
    }
  },
  "Edgemart_DataflowInstanceInfo": {
    "action": "edgemart",
    "parameters": {
      "alias": "DataflowInstanceInfo"
    }
  },
  "ComputeFields_OpportunityTeam": {
    "action": "computeExpression",
    "parameters": {
      "computedFields": [
        {
          "name": "Dataset_Access",
          "saqlExpression": "\"View All,View All Bookings\"",
          "type": "Text"
        }
      ],
      "mergeWithSource": true,
      "source": "Extract_OpportunityTeam"
    }
  },
  "Compute_KSC_Region": {
    "action": "computeExpression",
    "parameters": {
      "computedFields": [
        {
          "label": "KSC Region",
          "name": "KSC_Region",
          "saqlExpression": "case when 'Account.Account_Owner_Role__c' matches \"AMER - C - KSC - KEY - EAST\" then \"Key East\" when 'Account.Account_Owner_Role__c' matches \"AMER - C - KSC - KEY - WEST\" then \" Key West\" when 'Account.Account_Owner_Role__c' matches \"AMER - C - KSC - SEL\" then \"Key SEL\" when 'Account.Account_Owner_Role__c' matches \"AMER - C - KSC - CAN\" then \"Key CAN\" else \"Others\" end",
          "type": "Text"
        }
      ],
      "mergeWithSource": true,
      "source": "Augement_Parent_Owner_User"
    }
  },
  "Join_OpportunityProductPricebookEntryProduct": {
    "action": "augment",
    "parameters": {
      "relationship": "Product",
      "left": "Join_OpportunityProductPricebookEntry",
      "right": "Extract_Product",
      "left_key": [
        "Pricebook.Product2Id"
      ],
      "right_key": [
        "Id"
      ],
      "right_select": [
        "ProductCode",
        "Name",
        "Family",
        "sfbase__SKU__c",
        "L1_Business_Line__c",
        "L2_Product_Line__c",
        "L3_Product_Family__c",
        "L4_Product_Offering__c"
      ]
    }
  },
  "Augment_Opportunit_User_Deal_Sponsor_Name": {
    "action": "augment",
    "parameters": {
      "operation": "LookupSingleValue",
      "relationship": "Deal_Sponsor",
      "left": "CK_Augment_Opportunity_CountryCodes",
      "right": "Extract_User",
      "left_key": [
        "Deal_Sponsor__c"
      ],
      "right_key": [
        "Id"
      ],
      "right_select": [
        "Name"
      ]
    }
  },
  "joinSecurityPredicate": {
    "action": "augment",
    "parameters": {
      "operation": "LookupSingleValue",
      "relationship": "sec",
      "left": "Join_OpportunityOwner_Product",
      "right": "region_pred",
      "left_key": [
        "Account.Region__c"
      ],
      "right_key": [
        "PRED_VAL"
      ],
      "right_select": [
        "PRED_KEY"
      ]
    }
  },
  "sfdcDigest_User": {
    "action": "sfdcDigest",
    "parameters": {
      "fields": [
        {
          "name": "Id"
        },
        {
          "name": "Name"
        },
        {
          "name": "Role_ID__c"
        }
      ],
      "object": "User"
    }
  },
  "CK_Register_Marc_UserRole": {
    "action": "sfdcRegister",
    "parameters": {
      "name": "Big Deals User Role",
      "source": "ComputeFields_User",
      "alias": "Marc_UserRole"
    }
  },
  "Join_AccountOwner": {
    "action": "augment",
    "parameters": {
      "operation": "LookupSingleValue",
      "relationship": "Owner",
      "left": "Join_AccountDWH",
      "right": "ComputeFields_User",
      "left_key": [
        "OwnerId"
      ],
      "right_key": [
        "USR_ID"
      ],
      "right_select": [
        "MGT_USR_NM_PATH",
        "FORCST_MGR_USR_ID",
        "FORCST_USR_ID_PATH",
        "USR_ROLE_NM",
        "MGR_USR_ID",
        "MGR_USR_ROLE_ID",
        "MGT_USR_ID_PATH",
        "FORCST_PRXY_USR_NM_PATH",
        "FORCST_PRXY_USR_ID_PATH",
        "SE_ROLE_NM_PATH",
        "FORCST_USR_NM_PATH",
        "MACRO_SEG_NM",
        "FORCST_MGR_USR_NM",
        "FORCST_USR_ROLE_ID_PATH",
        "MGR_USR_ROLE_NM",
        "SE_ROLE_ID_PATH",
        "USR_NM",
        "USR_ROLE_ID",
        "FORCST_USR_ROLE_NM_PATH",
        "MGR_USR_NM",
        "PARENTHETICAL_USR_FLG",
        "NameUsername",
        "MgrNameUsername",
        "User.Name"
      ]
    }
  },
  "Compute_duplicate": {
    "action": "computeRelative",
    "parameters": {
      "computedFields": [
        {
          "description": "Filter field to Duplicated records",
          "expression": {
            "default": "True",
            "saqlExpression": "case when previous(uniqueID) is null then \"True\"\nelse \"False\"\nend",
            "type": "Text"
          },
          "label": "IsDuplicate",
          "name": "IsDuplicate"
        }
      ],
      "orderBy": [
        {
          "direction": "asc",
          "name": "Id"
        }
      ],
      "partitionBy": [
        "uniqueID"
      ],
      "source": "Compute_uniqueID"
    }
  },
  "sfdcDigest_Account": {
    "action": "sfdcDigest",
    "parameters": {
      "fields": [
        {
          "name": "Id"
        },
        {
          "name": "OwnerId"
        },
        {
          "name": "Account_Owner_Role__c"
        },
        {
          "name": "Name"
        }
      ],
      "object": "Account"
    }
  },
  "ComputeFields_Opportunity": {
    "action": "computeExpression",
    "parameters": {
      "computedFields": [
        {
          "name": "Dataset_Access",
          "saqlExpression": "\"View All,View All Bookings\"",
          "type": "Text"
        },
        {
          "label": "CreatedDate_FY_Qr",
          "name": "CreatedDate_FY_Qr",
          "saqlExpression": "\"FY\"+'CreatedDate_Year_Fiscal'+\" Q\"+'CreatedDate_Quarter_Fiscal'",
          "type": "Text"
        },
        {
          "label": "CloseDate_FY_Qr",
          "name": "CloseDate_FY_Qr",
          "saqlExpression": "\"FY\"+'CloseDate_Year_Fiscal'+\" Q\"+'CloseDate_Quarter_Fiscal'",
          "type": "Text"
        },
        {
          "name": "IsGTEStage2",
          "saqlExpression": "case when !('StageName' matches \"00\") and !('StageName' matches \"01\") then \"true\" else \"false\" end",
          "type": "Text"
        },
        {
          "label": "Deal Size",
          "name": "DealSize",
          "saqlExpression": "case when Amount <= 10000 then \"1_>10K\" when Amount > 10000 and Amount <= 100000 then \"2_10K-100K\" when Amount > 100000 and Amount <= 500000 then \"3_100K-500K\" when Amount > 500000 and Amount <= 1000000 then \"4_500K-1M\" else \"5_>1M\" end",
          "type": "Text"
        },
        {
          "label": "Deal Band",
          "name": "DealBand",
          "saqlExpression": "case when Amount < 10000 then \"1.Under_10K\" when Amount > 10000 and Amount <= 25000 then \"2. 10-25K\" when Amount > 25000 and Amount <= 100000 then \"3. 25K-100K\" when Amount > 100000 and Amount <= 500000 then \"4. 100K-500K\" else \"5. >500K\" end",
          "type": "Text"
        },
        {
          "name": "Filter_Type",
          "saqlExpression": " case when 'Type' matches \"Out Clause\" then \"Out Clause\" when 'Type' matches \"Price Increase\" then \"Price Increase\" when'Type' matches \"Off-Cycle\" then \"Off-Cycle\" else \"On-Cycle\" end",
          "type": "Text"
        },
        {
          "name": "Stage2_Flag_Set",
          "saqlExpression": "case when 'Stage_2_Flag__c' is null then \"false\" else \"true\" end",
          "type": "Text"
        },
        {
          "label": "Days Since Last Activity",
          "name": "DaysSinceLastActivity",
          "precision": 8,
          "saqlExpression": "case when LastActivityDate is null then daysBetween(toDate('LastModifiedDate_Year' + 'LastModifiedDate_Month' + 'LastModifiedDate_Day', \"yyyyMMdd\"), now()) when LastModifiedDate > LastActivityDate then daysBetween(toDate('LastModifiedDate_Year' + 'LastModifiedDate_Month' + 'LastModifiedDate_Day', \"yyyyMMdd\"), now()) else daysBetween(toDate('LastActivityDate_Year' + 'LastActivityDate_Month' + 'LastActivityDate_Day', \"yyyyMMdd\"), now()) end",
          "scale": 0,
          "type": "Numeric"
        }
      ],
      "mergeWithSource": true,
      "source": "Filter_opportunityCloseDate"
    }
  },
  "Select_fields": {
    "action": "sliceDataset",
    "parameters": {
      "fields": [
        {
          "name": "EndTime"
        },
        {
          "name": "Message"
        },
        {
          "name": "ExecutionStartTime"
        },
        {
          "name": "DataflowStatus"
        },
        {
          "name": "DataflowStatus_textBucket"
        },
        {
          "name": "StartTime"
        },
        {
          "name": "DataflowVersionId"
        },
        {
          "name": "Id"
        },
        {
          "name": "LastModifiedById"
        },
        {
          "name": "Dataflo.DataflowId"
        },
        {
          "name": "Dataflo.Id"
        },
        {
          "name": "Datafl1.MasterLabel"
        },
        {
          "name": "Datafl1.DeveloperName"
        },
        {
          "name": "Datafl1.LastModifiedById"
        },
        {
          "name": "Datafl1.CreatedDate"
        },
        {
          "name": "Datafl1.State"
        },
        {
          "name": "Datafl1.DataflowType"
        },
        {
          "name": "Datafl1_DataflowType_textBucket"
        },
        {
          "name": "Datafl1.CreatedById"
        },
        {
          "name": "Datafl1.Description"
        },
        {
          "name": "Datafl1.IsDeleted"
        },
        {
          "name": "Datafl1.LastModifiedDate"
        },
        {
          "name": "Datafl1.Id"
        },
        {
          "name": "User.FirstName"
        },
        {
          "name": "User.Name"
        },
        {
          "name": "User.Id"
        }
      ],
      "mode": "select",
      "source": "Transform_4_DataflowType"
    }
  },
  "Join_UserDWH_Manager": {
    "action": "augment",
    "parameters": {
      "relationship": "Manager",
      "left": "Join_UserDWH",
      "right": "Extract_User",
      "left_key": [
        "MGR_USR_ID"
      ],
      "right_key": [
        "Id"
      ],
      "right_select": [
        "Username",
        "EmployeeNumber"
      ]
    }
  },
  "sfdcDigest_Dataflow": {
    "action": "sfdcDigest",
    "parameters": {
      "fields": [
        {
          "name": "Id"
        },
        {
          "name": "CreatedById"
        },
        {
          "name": "DataflowType"
        },
        {
          "name": "MasterLabel"
        },
        {
          "name": "DeveloperName"
        },
        {
          "name": "LastModifiedById"
        },
        {
          "name": "CreatedDate"
        },
        {
          "name": "State"
        },
        {
          "name": "Description"
        },
        {
          "name": "IsDeleted"
        },
        {
          "name": "LastModifiedDate"
        }
      ],
      "object": "Dataflow"
    }
  },
  "Augment_2": {
    "action": "augment",
    "parameters": {
      "operation": "LookupSingleValue",
      "relationship": "Datafl1",
      "left": "Augment_1",
      "right": "sfdcDigest_Dataflow",
      "left_key": [
        "Dataflo.DataflowId"
      ],
      "right_key": [
        "Id"
      ],
      "right_select": [
        "Id",
        "CreatedById",
        "DataflowType",
        "MasterLabel",
        "DeveloperName",
        "LastModifiedById",
        "CreatedDate",
        "State",
        "Description",
        "IsDeleted",
        "LastModifiedDate"
      ]
    }
  },
  "Augment_3": {
    "action": "augment",
    "parameters": {
      "operation": "LookupSingleValue",
      "relationship": "User",
      "left": "Augment_2",
      "right": "sfdcDigest_User_Dataflow",
      "left_key": [
        "Datafl1.CreatedById"
      ],
      "right_key": [
        "Id"
      ],
      "right_select": [
        "Id",
        "FirstName",
        "Name"
      ]
    }
  },
  "Augment_1": {
    "action": "augment",
    "parameters": {
      "operation": "LookupSingleValue",
      "relationship": "Dataflo",
      "left": "sfdcDigest_DataflowInstance",
      "right": "sfdcDigest_DataflowVersion",
      "left_key": [
        "DataflowVersionId"
      ],
      "right_key": [
        "Id"
      ],
      "right_select": [
        "Id",
        "DataflowId"
      ]
    }
  },
  "Join_OpportunityProduct_PTB": {
    "action": "augment",
    "parameters": {
      "relationship": "PTB",
      "left": "ComputeFields_OpptyProductPTBJoinKey",
      "right": "ComputeFields_PTB",
      "left_key": [
        "AccountProductFamily"
      ],
      "right_key": [
        "AccountProductFamily"
      ],
      "right_select": [
        "PTB_Score"
      ]
    }
  },
  "Register_Account": {
    "action": "sfdcRegister",
    "parameters": {
      "name": "Account",
      "source": "Join_AccountOwner",
      "alias": "WaveAE_2_Account"
    }
  },
  "Join_OpportunityOwner": {
    "action": "augment",
    "parameters": {
      "operation": "LookupSingleValue",
      "relationship": "Owner",
      "left": "Join_OpportunityAccount",
      "right": "ComputeFields_User",
      "left_key": [
        "OwnerId"
      ],
      "right_key": [
        "USR_ID"
      ],
      "right_select": [
        "MGT_USR_NM_PATH",
        "FORCST_MGR_USR_ID",
        "FORCST_USR_ID_PATH",
        "USR_ROLE_NM",
        "MGR_USR_ID",
        "MGR_USR_ROLE_ID",
        "MGT_USR_ID_PATH",
        "FORCST_PRXY_USR_NM_PATH",
        "FORCST_PRXY_USR_ID_PATH",
        "SE_ROLE_NM_PATH",
        "FORCST_USR_NM_PATH",
        "MACRO_SEG_NM",
        "FORCST_MGR_USR_NM",
        "FORCST_USR_ROLE_ID_PATH",
        "MGR_USR_ROLE_NM",
        "SE_ROLE_ID_PATH",
        "USR_NM",
        "USR_ROLE_ID",
        "FORCST_USR_ROLE_NM_PATH",
        "MGR_USR_NM",
        "PARENTHETICAL_USR_FLG",
        "User.Mgmt_Chain_Level_06__c",
        "User.Mgmt_Chain_Level_07__c",
        "User.FullPhotoUrl",
        "User.SmallPhotoUrl",
        "NameUsername",
        "MgrNameUsername",
        "User.Name"
      ]
    }
  },
  "Join_OpportunityProductPricebookEntryProductOpportunity": {
    "action": "augment",
    "parameters": {
      "operation": "LookupSingleValue",
      "relationship": "Opportunity",
      "left": "Join_OpportunityProductPricebookEntryProduct",
      "right": "Join_OpportunityOwner_OpportunityTeam",
      "left_key": [
        "OpportunityId"
      ],
      "right_key": [
        "Id"
      ],
      "right_select": [
        "AccountId",
        "OwnerId",
        "Name",
        "StageName",
        "IsWon",
        "Type",
        "IsClosed",
        "ForecastCategory",
        "ForecastCategoryName",
        "CreatedDate",
        "CloseDate",
        "Executive_Sponsor__c",
        "Marc_Team_Champion__c",
        "PrimaryCompetitor__c",
        "X30_Day_Extension__c",
        "Next_Steps__c",
        "Manager_Notes__c",
        "sfbase__PriorAnnualContractValue__c",
        "Manager_Forecast_Judgement__c",
        "CreatedDate_FY_Qr",
        "CloseDate_FY_Qr",
        "Filter_Type",
        "Contract_End_Date__c",
        "sfbase__Contract_EndDate__c",
        "RecordType.Name",
        "Account.Name",
        "Account.Combo_Company__c",
        "Account.OwnerId",
        "Account.Industry",
        "Account.BillingCountry",
        "Account.BillingState",
        "Account.Region__c",
        "Account.Company__c",
        "Account.Company__c.Sector__c",
        "Account.Company__c.Id",
        "Account.Company__c.Name",
        "Account.Account.CSM_ID_PATH",
        "Account.Account.GLOBAL_CO_NM",
        "Account.Account.SFDC_TEAM_USR_ID",
        "Account.Owner.SE_ROLE_ID_PATH",
        "Account.Owner.SE_ROLE_NM_PATH",
        "Account.Owner.FORCST_MGR_USR_ID",
        "Account.Owner.FORCST_USR_ID_PATH",
        "Account.Owner.USR_ROLE_NM",
        "Account.Owner.MGR_USR_ID",
        "Account.Owner.MGT_USR_ID_PATH",
        "Account.Owner.USR_NM",
        "Account.Owner.MGR_USR_NM",
        "Account.Owner.NameUsername",
        "Owner.MGT_USR_NM_PATH",
        "Owner.FORCST_MGR_USR_ID",
        "Owner.FORCST_USR_ID_PATH",
        "Owner.USR_ROLE_NM",
        "Owner.MGR_USR_ID",
        "Owner.MGR_USR_ROLE_ID",
        "Owner.MGT_USR_ID_PATH",
        "Owner.MACRO_SEG_NM",
        "Owner.FORCST_MGR_USR_NM",
        "Owner.MGR_USR_ROLE_NM",
        "Owner.USR_NM",
        "Owner.MGR_USR_NM",
        "Owner.PARENTHETICAL_USR_FLG",
        "Owner.User.Mgmt_Chain_Level_07__c",
        "Owner.NameUsername",
        "OpportunityTeam.sfbase__User__c",
        "OpportunityTeam.User.MGT_USR_NM_PATH",
        "OpportunityTeam.User.FORCST_MGR_USR_ID",
        "OpportunityTeam.User.FORCST_USR_ID_PATH",
        "OpportunityTeam.User.MGR_USR_ID",
        "OpportunityTeam.User.MGT_USR_ID_PATH",
        "OpportunityTeam.User.USR_NM",
        "OpportunityTeam.User.MGR_USR_NM",
        "OpportunityTeam.User.NameUsername",
        "OpportunityTeam.User.MgrNameUsername",
        "Owner.User.Mgmt_Chain_Level_06__c",
        "Owner.User.Name",
        "SE_Involved__c",
        "SE_Attached__c",
        "Original_Opportunity_Owner_Role__c",
        "Opportunity_Source__c",
        "Deal_Sponsor__c"
      ]
    }
  },
  "Join_UserDWH": {
    "action": "augment",
    "parameters": {
      "operation": "LookupSingleValue",
      "relationship": "User",
      "left": "Update_UserDirectHierarchy",
      "right": "Extract_User",
      "left_key": [
        "USR_ID"
      ],
      "right_key": [
        "Id"
      ],
      "right_select": [
        "Username",
        "EmployeeNumber",
        "Mgmt_Chain_Level_06__c",
        "Mgmt_Chain_Level_07__c",
        "FullPhotoUrl",
        "SmallPhotoUrl",
        "Name"
      ]
    }
  },
  "Register_DataflowInstanceInfo": {
    "action": "sfdcRegister",
    "parameters": {
      "name": "DataflowInstanceInfo",
      "source": "Slice_duplicate_unique",
      "alias": "DataflowInstanceInfo"
    }
  },
  "Join_OpportunityAccount": {
    "action": "augment",
    "parameters": {
      "operation": "LookupSingleValue",
      "relationship": "Account",
      "left": "Join_OpportunityRecordType",
      "right": "Join_AccountOwner",
      "left_key": [
        "AccountId"
      ],
      "right_key": [
        "Id"
      ],
      "right_select": [
        "Name",
        "Combo_Company__c",
        "OwnerId",
        "AccountSource",
        "Type",
        "Industry",
        "BillingCountry",
        "BillingState",
        "Region__c",
        "Company__c",
        "Company__c.Sector__c",
        "Company__c.Id",
        "Account.CSM_ID_PATH",
        "Account.GLOBAL_CO_NM",
        "Account.SFDC_TEAM_USR_ID",
        "Owner.SE_ROLE_ID_PATH",
        "Owner.SE_ROLE_NM_PATH",
        "Owner.MGT_USR_NM_PATH",
        "Owner.FORCST_MGR_USR_ID",
        "Owner.FORCST_USR_ID_PATH",
        "Owner.USR_ROLE_NM",
        "Owner.MGR_USR_ID",
        "Owner.MGR_USR_ROLE_ID",
        "Owner.MGT_USR_ID_PATH",
        "Owner.MACRO_SEG_NM",
        "Owner.FORCST_MGR_USR_NM",
        "Owner.MGR_USR_ROLE_NM",
        "Owner.USR_NM",
        "Owner.MGR_USR_NM",
        "Owner.PARENTHETICAL_USR_FLG",
        "Owner.NameUsername",
        "Company__c.Name"
      ]
    }
  },
  "Compute_uniqueID": {
    "action": "computeExpression",
    "parameters": {
      "computedFields": [
        {
          "label": "uniqueID",
          "name": "uniqueID",
          "saqlExpression": "Id + \"-\" + StartTime + \"-\" + EndTime + \"-\" + 'Datafl1.MasterLabel'",
          "type": "Text"
        }
      ],
      "mergeWithSource": true,
      "source": "Append_new_old"
    }
  },
  "ComputeFields_User": {
    "action": "computeExpression",
    "parameters": {
      "computedFields": [
        {
          "label": "Name",
          "name": "NameUsername",
          "saqlExpression": "USR_NM + \" (\" + 'User.Username' + \")\"",
          "type": "Text"
        },
        {
          "label": "Name",
          "name": "MgrNameUsername",
          "saqlExpression": "MGR_USR_NM + \" (\" + 'Manager.Username' + \")\"",
          "type": "Text"
        },
        {
          "name": "Dataset_Access",
          "saqlExpression": "\"View All,View All Bookings\"",
          "type": "Text"
        }
      ],
      "mergeWithSource": true,
      "source": "Join_UserDWH_Manager"
    }
  },
  "Join_OpportunityRecordType": {
    "action": "augment",
    "parameters": {
      "relationship": "RecordType",
      "left": "ComputeFields_Opportunity",
      "right": "Extract_RecordType",
      "left_key": [
        "RecordTypeId"
      ],
      "right_key": [
        "Id"
      ],
      "right_select": [
        "Name"
      ]
    }
  },
  "Transform_4_DataflowType": {
    "action": "computeExpression",
    "parameters": {
      "computedFields": [
        {
          "label": "Dataflow Type textBucket",
          "name": "Datafl1_DataflowType_textBucket",
          "saqlExpression": "case when 'Datafl1.DataflowType' == \"Connector\" then \"Replications\" when 'Datafl1.DataflowType' == \"User\" then \"Dataflows\" when 'Datafl1.DataflowType' == \"Prepared\" then \"Recipes\" when 'Datafl1.DataflowType' == \"System\" then \"External Uploads\" else 'Datafl1.DataflowType' end",
          "type": "Text"
        }
      ],
      "mergeWithSource": true,
      "source": "Transform_3_DataflowStatus"
    }
  },
  "Extract_VTO_SuccessGraduate": {
    "action": "edgemart",
    "parameters": {
      "alias": "VTO"
    }
  },
  "Register_VTO_SuccessGraduate": {
    "action": "sfdcRegister",
    "parameters": {
      "name": "Foundation Volunteering Dataset",
      "source": "Extract_VTO_SuccessGraduate",
      "alias": "VTO_SuccessGraduate"
    }
  },
  "Filter_DSR_KSC_Region": {
    "action": "filter",
    "parameters": {
      "saqlFilter": "'KSC_Region' != \"Others\"",
      "source": "Compute_DSR_KSC_Region"
    }
  },
  "Join_Account_Company": {
    "action": "augment",
    "parameters": {
      "operation": "LookupSingleValue",
      "relationship": "Company__c",
      "left": "Extract_Account",
      "right": "Extract_Company",
      "left_key": [
        "Company__c"
      ],
      "right_key": [
        "Id"
      ],
      "right_select": [
        "Id",
        "Name",
        "Sector__c"
      ]
    }
  },
  "country_pred": {
    "action": "filter",
    "parameters": {
      "saqlFilter": "'PRED_TYPE' == \"COUNTRY\"",
      "source": "securityPredicates"
    }
  },
  "Register_UserManager_rodoni": {
    "action": "sfdcRegister",
    "parameters": {
      "name": "User Manager_rodoni",
      "source": "ComputeFields_User",
      "alias": "WaveAE_2_UserManager_rodoni"
    }
  },
  "Augment_DSR_Opportunity_Account": {
    "action": "augment",
    "parameters": {
      "operation": "LookupSingleValue",
      "relationship": "Acc",
      "left": "Augment_DSR_RecordType",
      "right": "sfdcDigest_Account",
      "left_key": [
        "Opportunity.AccountId"
      ],
      "right_key": [
        "Id"
      ],
      "right_select": [
        "Account_Owner_Role__c",
        "Name"
      ]
    }
  },
  "Extract_Company": {
    "action": "sfdcDigest",
    "parameters": {
      "fields": [
        {
          "name": "Sector__c"
        },
        {
          "name": "Id"
        },
        {
          "name": "Name"
        }
      ],
      "object": "Company__c"
    }
  },
  "Augment_DSR_Opportunity": {
    "action": "augment",
    "parameters": {
      "operation": "LookupSingleValue",
      "relationship": "Opportunity",
      "left": "sfdcDigest_DSR",
      "right": "sfdcDigest_Opportunity",
      "left_key": [
        "Opportunity__c"
      ],
      "right_key": [
        "Id"
      ],
      "right_select": [
        "Id",
        "CloseDate",
        "CreatedDate",
        "Amount",
        "AmountConverted__c",
        "StageName",
        "OwnerId",
        "AccountId",
        "Name"
      ]
    }
  },
  "Extract_Account": {
    "action": "sfdcDigest",
    "parameters": {
      "fields": [
        {
          "name": "Id"
        },
        {
          "name": "Name"
        },
        {
          "name": "Combo_Company__c"
        },
        {
          "name": "OwnerId"
        },
        {
          "name": "AccountSource"
        },
        {
          "name": "Type"
        },
        {
          "name": "Industry"
        },
        {
          "name": "BillingCountry"
        },
        {
          "name": "BillingState"
        },
        {
          "name": "Region__c"
        },
        {
          "fiscalMonthOffset": 1,
          "name": "CreatedDate"
        },
        {
          "fiscalMonthOffset": 1,
          "name": "LastModifiedDate"
        },
        {
          "name": "Company__c"
        },
        {
          "name": "Rating"
        }
      ],
      "fullRefreshToken": "8-9-2016",
      "object": "Account"
    }
  },
  "Augement_Parent_Owner_User": {
    "action": "augment",
    "parameters": {
      "operation": "LookupSingleValue",
      "relationship": "Parent_Owner",
      "left": "Augment_EBC_Parent_EBC",
      "right": "sfdcDigest_User",
      "left_key": [
        "ParentEBC.OwnerId"
      ],
      "right_key": [
        "Id"
      ],
      "right_select": [
        "Name"
      ]
    }
  },
  "Compute_DSR_KSC_Region": {
    "action": "computeExpression",
    "parameters": {
      "computedFields": [
        {
          "label": "KSC Region",
          "name": "KSC_Region",
          "saqlExpression": "case when 'Oppty_Owner_Role__c' matches \"AMER - C - KSC - KEY - EAST\" then \"Key East\" when 'Oppty_Owner_Role__c' matches \"AMER - C - KSC - KEY - WEST\" then \" Key West\" when 'Oppty_Owner_Role__c' matches \"AMER - C - KSC - SEL\" then \"Key SEL\" when 'Oppty_Owner_Role__c' matches \"AMER - C - KSC - CAN\" then \"Key CAN\" else \"Others\" end",
          "type": "Text"
        }
      ],
      "mergeWithSource": true,
      "source": "Augment_DSR_Opportunity_Account"
    }
  },
  "sfdcDigest_DataflowVersion": {
    "action": "sfdcDigest",
    "parameters": {
      "fields": [
        {
          "name": "Id"
        },
        {
          "name": "DataflowId"
        }
      ],
      "object": "DataflowVersion"
    }
  },
  "Append_new_old": {
    "action": "append",
    "parameters": {
      "enableDisjointedSchemaMerge": false,
      "sources": [
        "Select_fields",
        "Edgemart_DataflowInstanceInfo"
      ]
    }
  },
  "Extract_PTB": {
    "action": "edgemart",
    "parameters": {
      "alias": "PTB_By_Org62_Product_Family"
    }
  },
  "sfdcDigest_Opportunity": {
    "action": "sfdcDigest",
    "parameters": {
      "fields": [
        {
          "name": "Id"
        },
        {
          "name": "CloseDate"
        },
        {
          "name": "CreatedDate"
        },
        {
          "name": "Amount"
        },
        {
          "name": "AmountConverted__c"
        },
        {
          "name": "StageName"
        },
        {
          "name": "OwnerId"
        },
        {
          "name": "AccountId"
        },
        {
          "name": "Name"
        }
      ],
      "object": "Opportunity"
    }
  },
  "Register_EAS_DSR": {
    "action": "sfdcRegister",
    "parameters": {
      "name": "EAS_DSR",
      "source": "Filter_DSR_KSC_Region",
      "alias": "EAS_DSR"
    }
  },
  "Join_OpportunityOwner_Product": {
    "action": "augment",
    "parameters": {
      "operation": "LookupMultiValue",
      "relationship": "Product",
      "left": "Join_OpportunityOwner_OpportunityTeam",
      "right": "ComputeFields_OpptyProduct",
      "left_key": [
        "Id"
      ],
      "right_key": [
        "OpportunityId"
      ],
      "right_select": [
        "Product.Family",
        "Product.Name",
        "Opportunity.SE_Involved__c",
        "Opportunity.SE_Attached__c",
        "Opportunity.Original_Opportunity_Owner_Role__c",
        "Opportunity.Opportunity_Source__c",
        "Opportunity.Deal_Sponsor__c"
      ]
    }
  },
  "Extract_New_UserDirectHierarchy": {
    "action": "edgemart",
    "parameters": {
      "alias": "Change_in_userdirecthierarchy"
    }
  },
  "CK_Augment_Opportunity_CountryCodes": {
    "action": "augment",
    "parameters": {
      "relationship": "Country",
      "left": "Join_OpportunityOwner_Product",
      "right": "CK_Extract_CountryCodes",
      "left_key": [
        "Account.BillingCountry"
      ],
      "right_key": [
        "Alpha2Code"
      ],
      "right_select": [
        "Alpha3Code",
        "CountryName"
      ]
    }
  }
}