{
  "augment_User_9_Pipeline_Mulesoft": {
    "action": "augment",
    "parameters": {
      "relationship": "AccountId.OwnerId.Mgmt_Chain_Level_07__c",
      "left": "augment_User_8_Pipeline_Mulesoft",
      "right": "sfdcDigest_User_Pipeline_Mulesoft",
      "left_key": [
        "AccountId.OwnerId.Mgmt_Chain_Level_07__c"
      ],
      "right_key": [
        "Id"
      ],
      "right_select": [
        "Name"
      ]
    }
  },
  "Augment_AccountIntel_Oppty2": {
    "action": "augment",
    "parameters": {
      "operation": "LookupSingleValue",
      "relationship": "AccountIntel",
      "left": "Compute_ACV_Stage_Bucket",
      "right": "sfdcDigest_AccountIntelligence",
      "left_key": [
        "Opportunity.AccountId"
      ],
      "right_key": [
        "Account__c"
      ],
      "right_select": [
        "MuleSoft_PTB_Segment__c",
        "MuleSoft_Segment_Numeric__c",
        "Name"
      ]
    }
  },
  "Augment_Opportunity_Owner_Mgmt_8": {
    "action": "augment",
    "parameters": {
      "operation": "LookupSingleValue",
      "relationship": "OwnerId.Mgmt_Chain_Level_08__c",
      "left": "Augment_Opportunity_Owner_Mgmt_7",
      "right": "sfdcDigest_User",
      "left_key": [
        "OwnerId.Mgmt_Chain_Level_08__c"
      ],
      "right_key": [
        "Id"
      ],
      "right_select": [
        "Name"
      ]
    }
  },
  "sfdcDigest_Company__c": {
    "action": "sfdcDigest",
    "parameters": {
      "fields": [
        {
          "name": "Name"
        },
        {
          "name": "Industry__c"
        },
        {
          "name": "Id"
        }
      ],
      "object": "Company__c"
    }
  },
  "augment_User_3_Pipeline_Mulesoft": {
    "action": "augment",
    "parameters": {
      "relationship": "AccountId.OwnerId.sf62user__manager__c",
      "left": "augment_User_2_Pipeline_Mulesoft",
      "right": "sfdcDigest_User_Pipeline_Mulesoft",
      "left_key": [
        "AccountId.OwnerId.sf62user__manager__c"
      ],
      "right_key": [
        "Id"
      ],
      "right_select": [
        "Name"
      ]
    }
  },
  "sfdcDigest_RecordType": {
    "action": "sfdcDigest",
    "parameters": {
      "fields": [
        {
          "name": "DeveloperName"
        },
        {
          "name": "Id"
        },
        {
          "name": "Name"
        }
      ],
      "object": "RecordType"
    }
  },
  "augment_Company__c_1": {
    "action": "augment",
    "parameters": {
      "relationship": "AccountId.Global_Company__c",
      "left": "augment_Company__c",
      "right": "sfdcDigest_Company__c",
      "left_key": [
        "AccountId.Global_Company__c"
      ],
      "right_key": [
        "Id"
      ],
      "right_select": [
        "Industry__c"
      ]
    }
  },
  "augment_Company__c": {
    "action": "augment",
    "parameters": {
      "operation": "LookupSingleValue",
      "relationship": "AccountId.Company__c",
      "left": "augment_RecordType",
      "right": "sfdcDigest_Company__c",
      "left_key": [
        "AccountId.Company__c"
      ],
      "right_key": [
        "Id"
      ],
      "right_select": [
        "Name",
        "Industry__c"
      ]
    }
  },
  "ComputeRelative_Flag_Duplicates": {
    "action": "computeRelative",
    "parameters": {
      "computedFields": [
        {
          "expression": {
            "default": "0",
            "saqlExpression": "case when previous('Id') is null then 1 else 0 end",
            "type": "Numeric"
          },
          "label": "Flag_Duplicate",
          "name": "Flag_Duplicate"
        }
      ],
      "orderBy": [
        {
          "direction": "desc",
          "name": "Opportunity.CreatedDate"
        }
      ],
      "partitionBy": [
        "OpportunityId"
      ],
      "source": "Augment_AccountIntel_Oppty2"
    }
  },
  "Augment_Account_Owner_Role": {
    "action": "augment",
    "parameters": {
      "operation": "LookupSingleValue",
      "relationship": "AccountOwner.Role",
      "left": "Augment_Opportunity_Owner_Role",
      "right": "sfdcDigest_Role",
      "left_key": [
        "AccountId.OwnerId.UserRoleId"
      ],
      "right_key": [
        "Id"
      ],
      "right_select": [
        "Name"
      ]
    }
  },
  "sfdcDigest_Company__c_Pipeline_Mulesoft": {
    "action": "sfdcDigest",
    "parameters": {
      "fields": [
        {
          "name": "Name"
        },
        {
          "name": "Industry__c"
        },
        {
          "name": "Id"
        }
      ],
      "object": "Company__c"
    }
  },
  "augment_Account": {
    "action": "augment",
    "parameters": {
      "operation": "LookupSingleValue",
      "relationship": "AccountId",
      "left": "augment_User_1",
      "right": "sfdcDigest_Account",
      "left_key": [
        "Opportunity.AccountId"
      ],
      "right_key": [
        "Id"
      ],
      "right_select": [
        "Name",
        "OwnerId",
        "RecordTypeId",
        "AOV_Band__c",
        "Company__c",
        "Global_Company__c",
        "Region__c",
        "EBU_Sales_Programs__c",
        "SFDC_Sector__c",
        "Sub_Sector__c",
        "M_A__c",
        "CreatedDate",
        "Combo_Company__c"
      ]
    }
  },
  "Augment_opportuntyLineItem_Opportunity_Pipeline_Mulesoft": {
    "action": "augment",
    "parameters": {
      "operation": "LookupSingleValue",
      "relationship": "Opportunity",
      "left": "sfdcDigest_OpportunityLineItem_Pipeline_Mulesoft",
      "right": "sfdcDigest_Opportunity_Pipeline_Mulesoft",
      "left_key": [
        "OpportunityId"
      ],
      "right_key": [
        "Id"
      ],
      "right_select": [
        "AccountId",
        "Amount",
        "AmountConverted__c",
        "CloseDate",
        "IsClosed",
        "Lead_Sales_Partner_new__c",
        "Name",
        "OwnerId",
        "Pricebook2Id",
        "StageName",
        "Stage_2_Flag__c"
      ]
    }
  },
  "augment_User_4_Pipeline_Mulesoft": {
    "action": "augment",
    "parameters": {
      "relationship": "AccountId.OwnerId.Mgmt_Chain_Level_02__c",
      "left": "augment_User_3_Pipeline_Mulesoft",
      "right": "sfdcDigest_User_Pipeline_Mulesoft",
      "left_key": [
        "AccountId.OwnerId.Mgmt_Chain_Level_02__c"
      ],
      "right_key": [
        "Id"
      ],
      "right_select": [
        "Name"
      ]
    }
  },
  "sfdcDigest_OpportunityLineItem": {
    "action": "sfdcDigest",
    "parameters": {
      "fields": [
        {
          "name": "Id"
        },
        {
          "name": "Product_Name__c"
        },
        {
          "name": "OpportunityId"
        },
        {
          "name": "PricebookEntryId"
        },
        {
          "name": "Adjusted_Total_price__c"
        }
      ],
      "object": "OpportunityLineItem"
    }
  },
  "augment_User_2_Pipeline_Mulesoft": {
    "action": "augment",
    "parameters": {
      "relationship": "AccountId.OwnerId",
      "left": "augment_Account_Pipeline_Mulesoft",
      "right": "sfdcDigest_User_Pipeline_Mulesoft",
      "left_key": [
        "AccountId.OwnerId"
      ],
      "right_key": [
        "Id"
      ],
      "right_select": [
        "Name",
        "sf62user__manager__c",
        "Mgmt_Chain_Level_02__c",
        "Mgmt_Chain_Level_03__c",
        "Mgmt_Chain_Level_04__c",
        "Mgmt_Chain_Level_05__c",
        "Mgmt_Chain_Level_06__c",
        "Mgmt_Chain_Level_07__c",
        "Mgmt_Chain_Level_08__c"
      ]
    }
  },
  "sfdcDigest_Account_Pipeline_Mulesoft": {
    "action": "sfdcDigest",
    "parameters": {
      "fields": [
        {
          "name": "Name"
        },
        {
          "name": "OwnerId"
        },
        {
          "name": "RecordTypeId"
        },
        {
          "name": "AOV_Band__c"
        },
        {
          "name": "Company__c"
        },
        {
          "name": "Global_Company__c"
        },
        {
          "name": "Region__c"
        },
        {
          "name": "EBU_Sales_Programs__c"
        },
        {
          "name": "SFDC_Sector__c"
        },
        {
          "name": "Sub_Sector__c"
        },
        {
          "name": "M_A__c"
        },
        {
          "name": "Id"
        },
        {
          "name": "CreatedDate"
        }
      ],
      "object": "Account"
    }
  },
  "sfdcRegister_Mulesoft_Opportunity_Dataset_1": {
    "action": "sfdcRegister",
    "parameters": {
      "name": "Opportunity Dataset 1",
      "source": "Augment_AccountIntel_Oppty2",
      "alias": "Mulesoft_Opportunity_Dataset_125"
    }
  },
  "Compute_ACV_Stage_Bucket": {
    "action": "computeExpression",
    "parameters": {
      "computedFields": [
        {
          "label": "ACV Stage",
          "name": "ACV_Stage",
          "saqlExpression": "case 'Opportunity.StageName'\nwhen \"01 - Identifying an Opportunity\" then \"3.Omitted\"\nwhen \"02 - Determining Problem, Impact, Ideal\" then \"2.Open\" \nwhen \"03 - Validating Benefits & Value\" then \"2.Open\"\nwhen \"04 - Confirming Value With Power\" then \"2.Open\"\nwhen \"05 - Negotiating $$ & Mutual Plan\" then \"2.Open\"\nwhen \"06 - Finalizing Closure\" then \"2.Open\"\nwhen \"07 - Pending\" then \"2.Open\"\nwhen \"08 - Closed\" then \"1.Won\"\nwhen \"Dead - Duplicate\" then \"4. Dead\"\nwhen \"Dead - Lost\" then \"4. Dead\"\nwhen \"Dead - No Decision\" then \"4. Dead\"\nend",
          "type": "Text"
        },
        {
          "defaultValue": "No",
          "label": "Sales Ops Brand Selection Bucket",
          "name": "Sales_Ops_Brand_Selection_Bucket",
          "saqlExpression": "case when 'Opportunity.Sales_Ops_Brand_Selection__c' matches \"Mulesoft\" then \"Yes\" else \"No\" end\n",
          "type": "Text"
        },
        {
          "defaultValue": "null",
          "label": "Sales_ops_brand_selection",
          "name": "Sales_ops_Brand_Selection",
          "saqlExpression": "case when 'Opportunity.Sales_Ops_Brand_Selection__c' is null then \"null\" else 'Opportunity.Sales_Ops_Brand_Selection__c' end",
          "type": "Text"
        }
      ],
      "mergeWithSource": true,
      "source": "Filter_OpportunityStages"
    }
  },
  "sfdcRegister_Mulesoft_Opportunity_Dataset_2": {
    "action": "sfdcRegister",
    "parameters": {
      "name": "Opportunity Dataset 2",
      "source": "Slice_Product_Fields",
      "alias": "Mulesoft_Opportunity_Dataset_225"
    }
  },
  "Augment_Opportunity_Owner_Role": {
    "action": "augment",
    "parameters": {
      "operation": "LookupSingleValue",
      "relationship": "OpportunityOwner.Role",
      "left": "Augment_Opportunity_RecordType",
      "right": "sfdcDigest_Role",
      "left_key": [
        "OwnerId.UserRoleId"
      ],
      "right_key": [
        "Id"
      ],
      "right_select": [
        "Name"
      ]
    }
  },
  "augment_Opportunity_Account": {
    "action": "augment",
    "parameters": {
      "operation": "LookupSingleValue",
      "relationship": "Lead_Sales_Partner_new__c",
      "left": "Augment_opportuntyLineItem_Opportunity",
      "right": "sfdcDigest_Account",
      "left_key": [
        "Opportunity.Lead_Sales_Partner_new__c"
      ],
      "right_key": [
        "Id"
      ],
      "right_select": [
        "Name",
        "CreatedDate",
        "Combo_Company__c"
      ]
    }
  },
  "Augment_PriceBookEntry_Product": {
    "action": "augment",
    "parameters": {
      "operation": "LookupSingleValue",
      "relationship": "Product",
      "left": "Augment_OpportunityLineItem_PriceBookEntry",
      "right": "sfdcDigest_Product",
      "left_key": [
        "PriceBookEntry.Product2Id"
      ],
      "right_key": [
        "Id"
      ],
      "right_select": [
        "Name",
        "Id",
        "L1_Business_Line__c"
      ]
    }
  },
  "augment_User_8_Pipeline_Mulesoft": {
    "action": "augment",
    "parameters": {
      "relationship": "AccountId.OwnerId.Mgmt_Chain_Level_06__c",
      "left": "augment_User_7_Pipeline_Mulesoft",
      "right": "sfdcDigest_User_Pipeline_Mulesoft",
      "left_key": [
        "AccountId.OwnerId.Mgmt_Chain_Level_06__c"
      ],
      "right_key": [
        "Id"
      ],
      "right_select": [
        "Name"
      ]
    }
  },
  "Augment_opportuntyLineItem_Opportunity": {
    "action": "augment",
    "parameters": {
      "operation": "LookupSingleValue",
      "relationship": "Opportunity",
      "left": "sfdcDigest_OpportunityLineItem",
      "right": "sfdcDigest_Opportunity",
      "left_key": [
        "OpportunityId"
      ],
      "right_key": [
        "Id"
      ],
      "right_select": [
        "AccountId",
        "Amount",
        "AmountConverted__c",
        "CloseDate",
        "IsClosed",
        "Lead_Sales_Partner_new__c",
        "Name",
        "OwnerId",
        "Pricebook2Id",
        "StageName",
        "Stage_2_Flag__c",
        "ForecastCategory",
        "ForecastCategoryName",
        "Type",
        "CreatedDate",
        "RecordTypeId",
        "Manager_Forecast_Judgement__c",
        "Sales_Ops_Brand_Selection__c",
        "Description",
        "Next_Steps__c",
        "sfbase__PriorAnnualContractValue__c"
      ]
    }
  },
  "Filter_OpportunityStages": {
    "action": "filter",
    "parameters": {
      "saqlFilter": "('Opportunity.StageName' in [\"01 - Identifying an Opportunity\",\"02 - Determining Problem, Impact, Ideal\", \"03 - Validating Benefits & Value\", \"04 - Confirming Value With Power\", \"05 - Negotiating $$ & Mutual Plan\", \"06 - Finalizing Closure\", \"07 - Pending\", \"08 - Closed\",\"Dead - Lost\",\"Dead - Duplicate\",\"Dead - No Decision\"])",
      "source": "Augment_Account_Owner_Role"
    }
  },
  "sfdcDigest_PriceBookEntry": {
    "action": "sfdcDigest",
    "parameters": {
      "fields": [
        {
          "name": "Id"
        },
        {
          "name": "Product2Id"
        }
      ],
      "object": "PricebookEntry"
    }
  },
  "augment_User_Pipeline_Mulesoft": {
    "action": "augment",
    "parameters": {
      "operation": "LookupSingleValue",
      "relationship": "OwnerId",
      "left": "augment_Opportunity_Account_Pipeline_Mulesoft",
      "right": "sfdcDigest_User_Pipeline_Mulesoft",
      "left_key": [
        "Opportunity.OwnerId"
      ],
      "right_key": [
        "Id"
      ],
      "right_select": [
        "Name",
        "sf62user__manager__c"
      ]
    }
  },
  "sfdcDigest_RecordType_Pipeline_Mulesoft": {
    "action": "sfdcDigest",
    "parameters": {
      "fields": [
        {
          "name": "DeveloperName"
        },
        {
          "name": "Id"
        },
        {
          "name": "Name"
        }
      ],
      "object": "RecordType"
    }
  },
  "register_FY20 MuleSoft Trending V3_Pipeline_Mulesoft": {
    "action": "sfdcRegister",
    "parameters": {
      "name": "MuleSoft Pipeline Dataset",
      "source": "Compute_BucketFields_Pipeline_Mulesoft",
      "alias": "MuleSoft_Pipeline_Dataset"
    }
  },
  "Augment_Opportunity_Owner_Mgmt_3": {
    "action": "augment",
    "parameters": {
      "operation": "LookupSingleValue",
      "relationship": "OwnerId.Mgmt_Chain_Level_03__c",
      "left": "Augment_Opportunity_Owner_Mgmt_2",
      "right": "sfdcDigest_User",
      "left_key": [
        "OwnerId.Mgmt_Chain_Level_03__c"
      ],
      "right_key": [
        "Id"
      ],
      "right_select": [
        "Name"
      ]
    }
  },
  "Augment_OpportunityLineItem_PriceBookEntry_Pipeline_Mulesoft": {
    "action": "augment",
    "parameters": {
      "operation": "LookupSingleValue",
      "relationship": "PriceBookEntry",
      "left": "augment_Company__c_1_Pipeline_Mulesoft",
      "right": "sfdcDigest_PriceBookEntry_Pipeline_Mulesoft",
      "left_key": [
        "PricebookEntryId"
      ],
      "right_key": [
        "Id"
      ],
      "right_select": [
        "Product2Id"
      ]
    }
  },
  "Augment_Opportunity_Owner_Mgmt_2": {
    "action": "augment",
    "parameters": {
      "operation": "LookupSingleValue",
      "relationship": "OwnerId.Mgmt_Chain_Level_02__c",
      "left": "Compute_BucketFields",
      "right": "sfdcDigest_User",
      "left_key": [
        "OwnerId.Mgmt_Chain_Level_02__c"
      ],
      "right_key": [
        "Id"
      ],
      "right_select": [
        "Name"
      ]
    }
  },
  "sfdcDigest_Product": {
    "action": "sfdcDigest",
    "parameters": {
      "fields": [
        {
          "name": "Id"
        },
        {
          "name": "Name"
        },
        {
          "name": "L1_Business_Line__c"
        }
      ],
      "object": "Product2"
    }
  },
  "Augment_Opportunity_Owner_Mgmt_7": {
    "action": "augment",
    "parameters": {
      "operation": "LookupSingleValue",
      "relationship": "OwnerId.Mgmt_Chain_Level_07__c",
      "left": "Augment_Opportunity_Owner_Mgmt_6",
      "right": "sfdcDigest_User",
      "left_key": [
        "OwnerId.Mgmt_Chain_Level_07__c"
      ],
      "right_key": [
        "Id"
      ],
      "right_select": [
        "Name"
      ]
    }
  },
  "Augment_Opportunity_Owner_Mgmt_6": {
    "action": "augment",
    "parameters": {
      "operation": "LookupSingleValue",
      "relationship": "OwnerId.Mgmt_Chain_Level_06__c",
      "left": "Augment_Opportunity_Owner_Mgmt_5",
      "right": "sfdcDigest_User",
      "left_key": [
        "OwnerId.Mgmt_Chain_Level_06__c"
      ],
      "right_key": [
        "Id"
      ],
      "right_select": [
        "Name"
      ]
    }
  },
  "Augment_Opportunity_Owner_Mgmt_5": {
    "action": "augment",
    "parameters": {
      "operation": "LookupSingleValue",
      "relationship": "OwnerId.Mgmt_Chain_Level_05__c",
      "left": "Augment_Opportunity_Owner_Mgmt_4",
      "right": "sfdcDigest_User",
      "left_key": [
        "OwnerId.Mgmt_Chain_Level_05__c"
      ],
      "right_key": [
        "Id"
      ],
      "right_select": [
        "Name"
      ]
    }
  },
  "Augment_Opportunity_Owner_Mgmt_4": {
    "action": "augment",
    "parameters": {
      "operation": "LookupSingleValue",
      "relationship": "OwnerId.Mgmt_Chain_Level_04__c",
      "left": "Augment_Opportunity_Owner_Mgmt_3",
      "right": "sfdcDigest_User",
      "left_key": [
        "OwnerId.Mgmt_Chain_Level_04__c"
      ],
      "right_key": [
        "Id"
      ],
      "right_select": [
        "Name"
      ]
    }
  },
  "sfdcDigest_User": {
    "action": "sfdcDigest",
    "parameters": {
      "fields": [
        {
          "name": "Name"
        },
        {
          "name": "sf62user__manager__c"
        },
        {
          "name": "Mgmt_Chain_Level_02__c"
        },
        {
          "name": "Mgmt_Chain_Level_03__c"
        },
        {
          "name": "Mgmt_Chain_Level_04__c"
        },
        {
          "name": "Mgmt_Chain_Level_05__c"
        },
        {
          "name": "Mgmt_Chain_Level_06__c"
        },
        {
          "name": "Mgmt_Chain_Level_07__c"
        },
        {
          "name": "Mgmt_Chain_Level_08__c"
        },
        {
          "name": "Id"
        },
        {
          "name": "sfbase__Region__c"
        },
        {
          "name": "UserRoleId"
        }
      ],
      "object": "User"
    }
  },
  "Filter_Duplicate_Opportunities": {
    "action": "filter",
    "parameters": {
      "saqlFilter": "Flag_Duplicate == 1",
      "source": "ComputeRelative_Flag_Duplicates"
    }
  },
  "sfdcDigest_Account": {
    "action": "sfdcDigest",
    "parameters": {
      "fields": [
        {
          "name": "Name"
        },
        {
          "name": "OwnerId"
        },
        {
          "name": "RecordTypeId"
        },
        {
          "name": "AOV_Band__c"
        },
        {
          "name": "Company__c"
        },
        {
          "name": "Global_Company__c"
        },
        {
          "name": "Region__c"
        },
        {
          "name": "EBU_Sales_Programs__c"
        },
        {
          "name": "SFDC_Sector__c"
        },
        {
          "name": "Sub_Sector__c"
        },
        {
          "name": "M_A__c"
        },
        {
          "name": "Id"
        },
        {
          "name": "CreatedDate"
        },
        {
          "name": "Combo_Company__c"
        }
      ],
      "object": "Account"
    }
  },
  "augment_User": {
    "action": "augment",
    "parameters": {
      "operation": "LookupSingleValue",
      "relationship": "OwnerId",
      "left": "augment_Opportunity_Account",
      "right": "sfdcDigest_User",
      "left_key": [
        "Opportunity.OwnerId"
      ],
      "right_key": [
        "Id"
      ],
      "right_select": [
        "Name",
        "sf62user__manager__c",
        "Mgmt_Chain_Level_02__c",
        "Mgmt_Chain_Level_03__c",
        "Mgmt_Chain_Level_04__c",
        "Mgmt_Chain_Level_05__c",
        "Mgmt_Chain_Level_06__c",
        "Mgmt_Chain_Level_07__c",
        "Mgmt_Chain_Level_08__c",
        "sfbase__Region__c",
        "UserRoleId"
      ]
    }
  },
  "augment_User_6_Pipeline_Mulesoft": {
    "action": "augment",
    "parameters": {
      "relationship": "AccountId.OwnerId.Mgmt_Chain_Level_04__c",
      "left": "augment_User_5_Pipeline_Mulesoft",
      "right": "sfdcDigest_User_Pipeline_Mulesoft",
      "left_key": [
        "AccountId.OwnerId.Mgmt_Chain_Level_04__c"
      ],
      "right_key": [
        "Id"
      ],
      "right_select": [
        "Name"
      ]
    }
  },
  "Augment_OpportunityLineItem_PriceBookEntry": {
    "action": "augment",
    "parameters": {
      "operation": "LookupSingleValue",
      "relationship": "PriceBookEntry",
      "left": "augment_Company__c_1",
      "right": "sfdcDigest_PriceBookEntry",
      "left_key": [
        "PricebookEntryId"
      ],
      "right_key": [
        "Id"
      ],
      "right_select": [
        "Product2Id"
      ]
    }
  },
  "Compute_BucketFields": {
    "action": "computeExpression",
    "parameters": {
      "computedFields": [
        {
          "label": "Mulesoft Sales Region",
          "name": "Mulesoft_Sales_Region",
          "saqlExpression": "case\n    'OwnerId.sf62user__manager__c.Name'\n\twhen \"Christopher Hill\" then \"ANZ North\"\n\twhen \"Denise Carson\" then \"ANZ North\"\n\twhen \"Jonathan Stern\" then \"ANZ North\"\n\twhen \"Grace Micallef\" then \"ANZ South\"\n\twhen \"Marc Caltabiano\" then \"ANZ South\"\n\twhen \"Brett Nulf\" then \"ASIA\"\n\twhen \"Chris Curtis\" then \"ASIA\"\n\twhen \"Siddharth Rastogi\" then \"ASIA\"\n\twhen \"Ruediger Fabian\" then \"DACH\"\n\twhen \"TBH-CH-RVP\" then \"DACH\"\n\twhen \"Thorsten Guenther\" then \"DACH\"\n\twhen \"David Becker\" then \"East\"\n\twhen \"Eric Daggett\" then \"East\"\n\twhen \"Karim Tarmohamed\" then \"East\"\n\twhen \"Michael Williams\" then \"East\"\n\twhen \"Mike DiGiovacchino\" then \"East\"\n\twhen \"Nick Trombetta\" then \"East\"\n\twhen \"Parker Thompson\" then \"East\"\n\twhen \"Jude Boyle\" then \"Federal\"\n\twhen \"TBH-DOD-RVP\" then \"Federal\"\n\twhen \"Michael Chaouat\" then \"France\"\n\twhen \"TBH-FRCBU-RSD\" then \"France\"\n\twhen \"Bianca van Dulmen\" then \"NE\"\n\twhen \"Herman von Greiff\" then \"NE\"\n\twhen \"Job Schoonbeek\" then \"NE\"\n\twhen \"Anthony Digate\" then \"North\"\n\twhen \"David Hedrich\" then \"North\"\n\twhen \"Glenn Johnson\" then \"North\"\n\twhen \"Kurt Clesle\" then \"North\"\n\twhen \"Michael Minger\" then \"North\"\n\twhen \"Paul Dier\" then \"North\"\n\twhen \"Scott Conner\" then \"North\"\n\twhen \"Will Bosma\" then \"ROA\"\n\twhen \"Anne Dorff\" then \"South\"\n\twhen \"Carl Johnson\" then \"South\"\n\twhen \"James DesPres\" then \"South\"\n\twhen \"Matt Mathis\" then \"South\"\n\twhen \"Ron Decanio\" then \"South\"\n\twhen \"TBH-SOUTH-TOLAKEY2\" then \"South\"\n\twhen \"Wayne Joe\" then \"South\"\n\twhen \"Adrian Trickett\" then \"UK\"\n\twhen \"David Hughes\" then \"UK\"\n\twhen \"James Anderson\" then \"UK\"\n\twhen \"Justin Wilson\" then \"UK\"\n\twhen \"Marc Fryer\" then \"UK\"\n\twhen \"Nikki Perham\" then \"UK\"\n\twhen \"Noel Coloe\" then \"UK\"\n\twhen \"Darren Moffett\" then \"West\"\n\twhen \"Geoff Lochausen\" then \"West\"\n\twhen \"Jim Campbell\" then \"West\"\n\twhen \"Michael Gibson\" then \"West\"\n\twhen \"Michael Sitver\" then \"West\"\n\twhen \"Richard Coffin\" then \"West\"\n\twhen \"TBH-PACNW-RVP\" then \"West\"\n\twhen \"Walt Carrington\" then \"West\"\n\telse \"other\"\nend",
          "type": "Text"
        },
        {
          "label": "Deal Band",
          "name": "Deal_Band",
          "saqlExpression": "case\n    when 'Opportunity.AmountConverted__c' <= 150000 then \"Less than $150k\"\n\twhen ('Opportunity.AmountConverted__c' > 150000 && 'Opportunity.AmountConverted__c' <= 250000) then \"$150k - $250k\"\n\twhen ('Opportunity.AmountConverted__c' > 250000 && 'Opportunity.AmountConverted__c' <= 500000) then \"$250k - $500k\"\n\twhen ('Opportunity.AmountConverted__c' > 500000 && 'Opportunity.AmountConverted__c' <= 1000000) then \"$500k - $1m\"\n\twhen ('Opportunity.AmountConverted__c' > 1000000 ) then \"$1m+\"\n\telse \"other\"\nend",
          "type": "Text"
        }
      ],
      "mergeWithSource": true,
      "source": "Augment_PriceBookEntry_Product"
    }
  },
  "augment_Opportunity_Account_Pipeline_Mulesoft": {
    "action": "augment",
    "parameters": {
      "operation": "LookupSingleValue",
      "relationship": "Lead_Sales_Partner_new__c",
      "left": "Augment_opportuntyLineItem_Opportunity_Pipeline_Mulesoft",
      "right": "sfdcDigest_Account_Pipeline_Mulesoft",
      "left_key": [
        "Opportunity.Lead_Sales_Partner_new__c"
      ],
      "right_key": [
        "Id"
      ],
      "right_select": [
        "Name",
        "CreatedDate"
      ]
    }
  },
  "Compute_BucketFields_Pipeline_Mulesoft": {
    "action": "computeExpression",
    "parameters": {
      "computedFields": [
        {
          "label": "Mulesoft Sales Region",
          "name": "Mulesoft_Sales_Region",
          "saqlExpression": "case\n 'OwnerId.sf62user__manager__c.Name'\n\twhen \"Christopher Hill\" then \"ANZ North\"\n\twhen \"Denise Carson\" then \"ANZ North\"\n\twhen \"Jonathan Stern\" then \"ANZ North\"\n\twhen \"Grace Micallef\" then \"ANZ South\"\n\twhen \"Marc Caltabiano\" then \"ANZ South\"\n\twhen \"Brett Nulf\" then \"ASIA\"\n\twhen \"Chris Curtis\" then \"ASIA\"\n\twhen \"Siddharth Rastogi\" then \"ASIA\"\n\twhen \"Ruediger Fabian\" then \"DACH\"\n\twhen \"TBH-CH-RVP\" then \"DACH\"\n\twhen \"Thorsten Guenther\" then \"DACH\"\n\twhen \"David Becker\" then \"East\"\n\twhen \"Eric Daggett\" then \"East\"\n\twhen \"Karim Tarmohamed\" then \"East\"\n\twhen \"Michael Williams\" then \"East\"\n\twhen \"Mike DiGiovacchino\" then \"East\"\n\twhen \"Nick Trombetta\" then \"East\"\n\twhen \"Parker Thompson\" then \"East\"\n\twhen \"Jude Boyle\" then \"Federal\"\n\twhen \"TBH-DOD-RVP\" then \"Federal\"\n\twhen \"Michael Chaouat\" then \"France\"\n\twhen \"TBH-FRCBU-RSD\" then \"France\"\n\twhen \"Bianca van Dulmen\" then \"NE\"\n\twhen \"Herman von Greiff\" then \"NE\"\n\twhen \"Job Schoonbeek\" then \"NE\"\n\twhen \"Anthony Digate\" then \"North\"\n\twhen \"David Hedrich\" then \"North\"\n\twhen \"Glenn Johnson\" then \"North\"\n\twhen \"Kurt Clesle\" then \"North\"\n\twhen \"Michael Minger\" then \"North\"\n\twhen \"Paul Dier\" then \"North\"\n\twhen \"Scott Conner\" then \"North\"\n\twhen \"Will Bosma\" then \"ROA\"\n\twhen \"Anne Dorff\" then \"South\"\n\twhen \"Carl Johnson\" then \"South\"\n\twhen \"James DesPres\" then \"South\"\n\twhen \"Matt Mathis\" then \"South\"\n\twhen \"Ron Decanio\" then \"South\"\n\twhen \"TBH-SOUTH-TOLAKEY2\" then \"South\"\n\twhen \"Wayne Joe\" then \"South\"\n\twhen \"Adrian Trickett\" then \"UK\"\n\twhen \"David Hughes\" then \"UK\"\n\twhen \"James Anderson\" then \"UK\"\n\twhen \"Justin Wilson\" then \"UK\"\n\twhen \"Marc Fryer\" then \"UK\"\n\twhen \"Nikki Perham\" then \"UK\"\n\twhen \"Noel Coloe\" then \"UK\"\n\twhen \"Darren Moffett\" then \"West\"\n\twhen \"Geoff Lochausen\" then \"West\"\n\twhen \"Jim Campbell\" then \"West\"\n\twhen \"Michael Gibson\" then \"West\"\n\twhen \"Michael Sitver\" then \"West\"\n\twhen \"Richard Coffin\" then \"West\"\n\twhen \"TBH-PACNW-RVP\" then \"West\"\n\twhen \"Walt Carrington\" then \"West\"\n\telse \"other\"\nend",
          "type": "Text"
        },
        {
          "label": "Deal Band",
          "name": "Deal_Band",
          "saqlExpression": "case\n when 'Opportunity.AmountConverted__c' <= 150000 then \"Less than $150k\"\n\twhen ('Opportunity.AmountConverted__c' > 150000 && 'Opportunity.AmountConverted__c' <= 250000) then \"$150k - $250k\"\n\twhen ('Opportunity.AmountConverted__c' > 250000 && 'Opportunity.AmountConverted__c' <= 500000) then \"$250k - $500k\"\n\twhen ('Opportunity.AmountConverted__c' > 500000 && 'Opportunity.AmountConverted__c' <= 1000000) then \"$500k - $1m\"\n\twhen ('Opportunity.AmountConverted__c' > 1000000 ) then \"$1m+\"\n\telse \"other\"\nend",
          "type": "Text"
        }
      ],
      "mergeWithSource": true,
      "source": "Filter_Mulesoft_Pipeline_Mulesoft"
    }
  },
  "augment_User_7_Pipeline_Mulesoft": {
    "action": "augment",
    "parameters": {
      "relationship": "AccountId.OwnerId.Mgmt_Chain_Level_05__c",
      "left": "augment_User_6_Pipeline_Mulesoft",
      "right": "sfdcDigest_User_Pipeline_Mulesoft",
      "left_key": [
        "AccountId.OwnerId.Mgmt_Chain_Level_05__c"
      ],
      "right_key": [
        "Id"
      ],
      "right_select": [
        "Name"
      ]
    }
  },
  "sfdcDigest_PriceBookEntry_Pipeline_Mulesoft": {
    "action": "sfdcDigest",
    "parameters": {
      "fields": [
        {
          "name": "Id"
        },
        {
          "name": "Product2Id"
        }
      ],
      "object": "PricebookEntry"
    }
  },
  "sfdcDigest_Opportunity_Pipeline_Mulesoft": {
    "action": "sfdcDigest",
    "parameters": {
      "fields": [
        {
          "name": "Lead_Sales_Partner_new__c"
        },
        {
          "name": "Name"
        },
        {
          "name": "OwnerId"
        },
        {
          "name": "AccountId"
        },
        {
          "name": "StageName"
        },
        {
          "name": "AmountConverted__c"
        },
        {
          "name": "Amount"
        },
        {
          "name": "Stage_2_Flag__c"
        },
        {
          "fiscalMonthOffset": 1,
          "name": "CloseDate"
        },
        {
          "name": "Pricebook2Id"
        },
        {
          "name": "IsClosed"
        },
        {
          "name": "Id"
        }
      ],
      "object": "Opportunity"
    }
  },
  "augment_User_10_Pipeline_Mulesoft": {
    "action": "augment",
    "parameters": {
      "relationship": "AccountId.OwnerId.Mgmt_Chain_Level_08__c",
      "left": "augment_User_9_Pipeline_Mulesoft",
      "right": "sfdcDigest_User_Pipeline_Mulesoft",
      "left_key": [
        "AccountId.OwnerId.Mgmt_Chain_Level_08__c"
      ],
      "right_key": [
        "Id"
      ],
      "right_select": [
        "Name"
      ]
    }
  },
  "sfdcDigest_AccountIntelligence": {
    "action": "sfdcDigest",
    "parameters": {
      "fields": [
        {
          "name": "Account__c"
        },
        {
          "name": "Name"
        },
        {
          "name": "MuleSoft_PTB_Segment__c"
        },
        {
          "name": "MuleSoft_Segment_Numeric__c"
        }
      ],
      "object": "Account_Intelligence__c"
    }
  },
  "augment_Account_Pipeline_Mulesoft": {
    "action": "augment",
    "parameters": {
      "operation": "LookupSingleValue",
      "relationship": "AccountId",
      "left": "augment_User_1_Pipeline_Mulesoft",
      "right": "sfdcDigest_Account_Pipeline_Mulesoft",
      "left_key": [
        "Opportunity.AccountId"
      ],
      "right_key": [
        "Id"
      ],
      "right_select": [
        "Name",
        "OwnerId",
        "RecordTypeId",
        "AOV_Band__c",
        "Company__c",
        "Global_Company__c",
        "Region__c",
        "EBU_Sales_Programs__c",
        "SFDC_Sector__c",
        "Sub_Sector__c",
        "M_A__c",
        "CreatedDate"
      ]
    }
  },
  "augment_User_1_Pipeline_Mulesoft": {
    "action": "augment",
    "parameters": {
      "relationship": "OwnerId.sf62user__manager__c",
      "left": "augment_User_Pipeline_Mulesoft",
      "right": "sfdcDigest_User_Pipeline_Mulesoft",
      "left_key": [
        "OwnerId.sf62user__manager__c"
      ],
      "right_key": [
        "Id"
      ],
      "right_select": [
        "Name"
      ]
    }
  },
  "augment_User_4": {
    "action": "augment",
    "parameters": {
      "operation": "LookupSingleValue",
      "relationship": "AccountId.OwnerId.Mgmt_Chain_Level_02__c",
      "left": "augment_User_3",
      "right": "sfdcDigest_User",
      "left_key": [
        "AccountId.OwnerId.Mgmt_Chain_Level_02__c"
      ],
      "right_key": [
        "Id"
      ],
      "right_select": [
        "Name"
      ]
    }
  },
  "augment_RecordType_Pipeline_Mulesoft": {
    "action": "augment",
    "parameters": {
      "relationship": "AccountId.RecordTypeId",
      "left": "augment_User_10_Pipeline_Mulesoft",
      "right": "sfdcDigest_RecordType_Pipeline_Mulesoft",
      "left_key": [
        "AccountId.RecordTypeId"
      ],
      "right_key": [
        "Id"
      ],
      "right_select": [
        "DeveloperName",
        "Name"
      ]
    }
  },
  "augment_User_5": {
    "action": "augment",
    "parameters": {
      "operation": "LookupSingleValue",
      "relationship": "AccountId.OwnerId.Mgmt_Chain_Level_03__c",
      "left": "augment_User_4",
      "right": "sfdcDigest_User",
      "left_key": [
        "AccountId.OwnerId.Mgmt_Chain_Level_03__c"
      ],
      "right_key": [
        "Id"
      ],
      "right_select": [
        "Name"
      ]
    }
  },
  "augment_User_2": {
    "action": "augment",
    "parameters": {
      "operation": "LookupSingleValue",
      "relationship": "AccountId.OwnerId",
      "left": "augment_Account",
      "right": "sfdcDigest_User",
      "left_key": [
        "AccountId.OwnerId"
      ],
      "right_key": [
        "Id"
      ],
      "right_select": [
        "Name",
        "sf62user__manager__c",
        "Mgmt_Chain_Level_02__c",
        "Mgmt_Chain_Level_03__c",
        "Mgmt_Chain_Level_04__c",
        "Mgmt_Chain_Level_05__c",
        "Mgmt_Chain_Level_06__c",
        "Mgmt_Chain_Level_07__c",
        "Mgmt_Chain_Level_08__c",
        "sfbase__Region__c",
        "UserRoleId"
      ]
    }
  },
  "augment_User_3": {
    "action": "augment",
    "parameters": {
      "operation": "LookupSingleValue",
      "relationship": "AccountId.OwnerId.sf62user__manager__c",
      "left": "augment_User_2",
      "right": "sfdcDigest_User",
      "left_key": [
        "AccountId.OwnerId.sf62user__manager__c"
      ],
      "right_key": [
        "Id"
      ],
      "right_select": [
        "Name",
        "sfbase__Region__c",
        "UserRoleId"
      ]
    }
  },
  "Augment_PriceBookEntry_Product_Pipeline_Mulesoft": {
    "action": "augment",
    "parameters": {
      "operation": "LookupSingleValue",
      "relationship": "Product",
      "left": "Augment_OpportunityLineItem_PriceBookEntry_Pipeline_Mulesoft",
      "right": "sfdcDigest_Product_Pipeline_Mulesoft",
      "left_key": [
        "PriceBookEntry.Product2Id"
      ],
      "right_key": [
        "Id"
      ],
      "right_select": [
        "Name",
        "Id"
      ]
    }
  },
  "augment_User_1": {
    "action": "augment",
    "parameters": {
      "operation": "LookupSingleValue",
      "relationship": "OwnerId.sf62user__manager__c",
      "left": "augment_User",
      "right": "sfdcDigest_User",
      "left_key": [
        "OwnerId.sf62user__manager__c"
      ],
      "right_key": [
        "Id"
      ],
      "right_select": [
        "Name",
        "sfbase__Region__c",
        "UserRoleId"
      ]
    }
  },
  "augment_Company__c_1_Pipeline_Mulesoft": {
    "action": "augment",
    "parameters": {
      "relationship": "AccountId.Global_Company__c",
      "left": "augment_Company__c_Pipeline_Mulesoft",
      "right": "sfdcDigest_Company__c_Pipeline_Mulesoft",
      "left_key": [
        "AccountId.Global_Company__c"
      ],
      "right_key": [
        "Id"
      ],
      "right_select": [
        "Industry__c"
      ]
    }
  },
  "augment_User_5_Pipeline_Mulesoft": {
    "action": "augment",
    "parameters": {
      "relationship": "AccountId.OwnerId.Mgmt_Chain_Level_03__c",
      "left": "augment_User_4_Pipeline_Mulesoft",
      "right": "sfdcDigest_User_Pipeline_Mulesoft",
      "left_key": [
        "AccountId.OwnerId.Mgmt_Chain_Level_03__c"
      ],
      "right_key": [
        "Id"
      ],
      "right_select": [
        "Name"
      ]
    }
  },
  "augment_User_10": {
    "action": "augment",
    "parameters": {
      "operation": "LookupSingleValue",
      "relationship": "AccountId.OwnerId.Mgmt_Chain_Level_08__c",
      "left": "augment_User_9",
      "right": "sfdcDigest_User",
      "left_key": [
        "AccountId.OwnerId.Mgmt_Chain_Level_08__c"
      ],
      "right_key": [
        "Id"
      ],
      "right_select": [
        "Name"
      ]
    }
  },
  "sfdcDigest_Role": {
    "action": "sfdcDigest",
    "parameters": {
      "fields": [
        {
          "name": "Id"
        },
        {
          "name": "Name"
        }
      ],
      "object": "UserRole"
    }
  },
  "sfdcDigest_Opportunity": {
    "action": "sfdcDigest",
    "parameters": {
      "fields": [
        {
          "name": "Lead_Sales_Partner_new__c"
        },
        {
          "name": "Name"
        },
        {
          "name": "OwnerId"
        },
        {
          "name": "AccountId"
        },
        {
          "name": "StageName"
        },
        {
          "name": "AmountConverted__c"
        },
        {
          "name": "Amount"
        },
        {
          "name": "Stage_2_Flag__c"
        },
        {
          "fiscalMonthOffset": 1,
          "name": "CloseDate"
        },
        {
          "name": "Pricebook2Id"
        },
        {
          "name": "IsClosed"
        },
        {
          "name": "Id"
        },
        {
          "name": "ForecastCategory"
        },
        {
          "name": "ForecastCategoryName"
        },
        {
          "name": "Type"
        },
        {
          "name": "CreatedDate"
        },
        {
          "name": "RecordTypeId"
        },
        {
          "name": "Manager_Forecast_Judgement__c"
        },
        {
          "name": "Sales_Ops_Brand_Selection__c"
        },
        {
          "name": "Description"
        },
        {
          "name": "Next_Steps__c"
        },
        {
          "name": "sfbase__PriorAnnualContractValue__c"
        }
      ],
      "object": "Opportunity"
    }
  },
  "sfdcDigest_Product_Pipeline_Mulesoft": {
    "action": "sfdcDigest",
    "parameters": {
      "fields": [
        {
          "name": "Id"
        },
        {
          "name": "Name"
        }
      ],
      "object": "Product2"
    }
  },
  "augment_RecordType": {
    "action": "augment",
    "parameters": {
      "relationship": "AccountId.RecordTypeId",
      "left": "augment_User_10",
      "right": "sfdcDigest_RecordType",
      "left_key": [
        "AccountId.RecordTypeId"
      ],
      "right_key": [
        "Id"
      ],
      "right_select": [
        "DeveloperName",
        "Name"
      ]
    }
  },
  "sfdcDigest_User_Pipeline_Mulesoft": {
    "action": "sfdcDigest",
    "parameters": {
      "fields": [
        {
          "name": "Name"
        },
        {
          "name": "sf62user__manager__c"
        },
        {
          "name": "Mgmt_Chain_Level_02__c"
        },
        {
          "name": "Mgmt_Chain_Level_03__c"
        },
        {
          "name": "Mgmt_Chain_Level_04__c"
        },
        {
          "name": "Mgmt_Chain_Level_05__c"
        },
        {
          "name": "Mgmt_Chain_Level_06__c"
        },
        {
          "name": "Mgmt_Chain_Level_07__c"
        },
        {
          "name": "Mgmt_Chain_Level_08__c"
        },
        {
          "name": "Id"
        }
      ],
      "object": "User"
    }
  },
  "sfdcDigest_OpportunityLineItem_Pipeline_Mulesoft": {
    "action": "sfdcDigest",
    "parameters": {
      "fields": [
        {
          "name": "Id"
        },
        {
          "name": "Product_Name__c"
        },
        {
          "name": "OpportunityId"
        },
        {
          "name": "PricebookEntryId"
        }
      ],
      "object": "OpportunityLineItem"
    }
  },
  "Augment_Opportunity_RecordType": {
    "action": "augment",
    "parameters": {
      "operation": "LookupSingleValue",
      "relationship": "Opportunity.RecordTypeID",
      "left": "Augment_Opportunity_Owner_Mgmt_8",
      "right": "sfdcDigest_RecordType",
      "left_key": [
        "Opportunity.RecordTypeId"
      ],
      "right_key": [
        "Id"
      ],
      "right_select": [
        "Name",
        "DeveloperName"
      ]
    }
  },
  "augment_Company__c_Pipeline_Mulesoft": {
    "action": "augment",
    "parameters": {
      "relationship": "AccountId.Company__c",
      "left": "augment_RecordType_Pipeline_Mulesoft",
      "right": "sfdcDigest_Company__c_Pipeline_Mulesoft",
      "left_key": [
        "AccountId.Company__c"
      ],
      "right_key": [
        "Id"
      ],
      "right_select": [
        "Name"
      ]
    }
  },
  "Filter_Mulesoft_Pipeline_Mulesoft": {
    "action": "filter",
    "parameters": {
      "saqlFilter": "'AccountId.CreatedDate_day_epoch' != 0 and 'Product.Name' == \"MuleSoft Forecasting Only - Internal Only\" and 'Opportunity.Stage_2_Flag__c_day_epoch' != 0 and ((!('Opportunity.StageName' in [\"02 - Determining Problem, Impact, Ideal\", \"03 - Validating Benefits & Value\", \"04 - Confirming Value With Power\", \"05 - Negotiating $$ & Mutual Plan\", \"06 - Finalizing Closure\", \"07 - Pending\", \"08 - Closed\"]) and date('Opportunity.CloseDate_Year', 'Opportunity.CloseDate_Month', 'Opportunity.CloseDate_Day') in [\"7 days ago\"..\"current day\"]) or 'Opportunity.StageName' in [\"02 - Determining Problem, Impact, Ideal\", \"03 - Validating Benefits & Value\", \"04 - Confirming Value With Power\", \"05 - Negotiating $$ & Mutual Plan\", \"06 - Finalizing Closure\", \"07 - Pending\", \"08 - Closed\"])",
      "source": "Augment_PriceBookEntry_Product_Pipeline_Mulesoft"
    }
  },
  "augment_User_8": {
    "action": "augment",
    "parameters": {
      "operation": "LookupSingleValue",
      "relationship": "AccountId.OwnerId.Mgmt_Chain_Level_06__c",
      "left": "augment_User_7",
      "right": "sfdcDigest_User",
      "left_key": [
        "AccountId.OwnerId.Mgmt_Chain_Level_06__c"
      ],
      "right_key": [
        "Id"
      ],
      "right_select": [
        "Name"
      ]
    }
  },
  "augment_User_9": {
    "action": "augment",
    "parameters": {
      "operation": "LookupSingleValue",
      "relationship": "AccountId.OwnerId.Mgmt_Chain_Level_07__c",
      "left": "augment_User_8",
      "right": "sfdcDigest_User",
      "left_key": [
        "AccountId.OwnerId.Mgmt_Chain_Level_07__c"
      ],
      "right_key": [
        "Id"
      ],
      "right_select": [
        "Name"
      ]
    }
  },
  "augment_User_6": {
    "action": "augment",
    "parameters": {
      "operation": "LookupSingleValue",
      "relationship": "AccountId.OwnerId.Mgmt_Chain_Level_04__c",
      "left": "augment_User_5",
      "right": "sfdcDigest_User",
      "left_key": [
        "AccountId.OwnerId.Mgmt_Chain_Level_04__c"
      ],
      "right_key": [
        "Id"
      ],
      "right_select": [
        "Name"
      ]
    }
  },
  "Slice_Product_Fields": {
    "action": "sliceDataset",
    "parameters": {
      "fields": [
        {
          "name": "Product.Id"
        },
        {
          "name": "PricebookEntryId"
        },
        {
          "name": "Product_Name__c"
        },
        {
          "name": "Product.Name"
        },
        {
          "name": "PriceBookEntry.Product2Id"
        }
      ],
      "mode": "drop",
      "source": "Filter_Duplicate_Opportunities"
    }
  },
  "augment_User_7": {
    "action": "augment",
    "parameters": {
      "operation": "LookupSingleValue",
      "relationship": "AccountId.OwnerId.Mgmt_Chain_Level_05__c",
      "left": "augment_User_6",
      "right": "sfdcDigest_User",
      "left_key": [
        "AccountId.OwnerId.Mgmt_Chain_Level_05__c"
      ],
      "right_key": [
        "Id"
      ],
      "right_select": [
        "Name",
        "UserRoleId"
      ]
    }
  }
}