{
  "Compute_Dates": {
    "action": "computeExpression",
    "parameters": {
      "computedFields": [
        {
          "label": "Original",
          "name": "Original",
          "saqlExpression": "substr('$SystemSnapshotStamp', 1,10)",
          "type": "Text"
        },
        {
          "format": "yyyy-MM-dd",
          "label": "Snap_Date",
          "name": "Snap_Date",
          "saqlExpression": "toDate( 'Original' , \"yyyy-MM-dd\")",
          "type": "Date"
        }
      ],
      "mergeWithSource": true,
      "source": "Extract_SnapReport"
    }
  },
  "Register_SnapReport": {
    "action": "sfdcRegister",
    "parameters": {
      "name": "PipelineMath_Snapshot",
      "source": "Drop_Fields",
      "alias": "PipelineMath_Snapshot"
    }
  },
  "Drop_Fields": {
    "action": "sliceDataset",
    "parameters": {
      "fields": [
        {
          "name": "$SystemSnapshotStamp"
        },
        {
          "name": "Original"
        }
      ],
      "mode": "drop",
      "source": "Compute_Dates"
    }
  },
  "Extract_SnapReport": {
    "action": "edgemart",
    "parameters": {
      "alias": "SnapshotReport_PipelineMath4"
    }
  }
}