{
  "FiscalDate": {
    "action": "computeExpression",
    "parameters": {
      "computedFields": [
        {
          "fiscalMonthOffset": 1,
          "format": "M/d/yyyy",
          "isYearEndFiscalYear": true,
          "label": "StartDate",
          "name": "StartDate",
          "saqlExpression": "toDate('Start_Date__c', \"yyyy-MM-ddTHH:mm:ss.SSSZ\")",
          "type": "Date"
        },
        {
          "fiscalMonthOffset": 1,
          "format": "M/d/yyyy",
          "isYearEndFiscalYear": true,
          "label": "EndDate",
          "name": "EndDate",
          "saqlExpression": "toDate('End_Date__c', \"yyyy-MM-ddTHH:mm:ss.SSSZ\")",
          "type": "Date"
        }
      ],
      "mergeWithSource": true,
      "source": "AIO Source filtered"
    }
  },
  "AIO Private Clean": {
    "action": "sliceDataset",
    "parameters": {
      "fields": [
        {
          "name": "End_Date__c"
        },
        {
          "name": "Start_Date__c"
        }
      ],
      "mode": "drop",
      "source": "FiscalDate"
    }
  },
  "AIO Source": {
    "action": "digest",
    "parameters": {
      "connectionName": "AIO",
      "fields": [
        {
          "name": "Id"
        },
        {
          "name": "APM_L2__c"
        },
        {
          "name": "Activity_Name_Loc__c"
        },
        {
          "name": "Activity_Name__c"
        },
        {
          "name": "Activity_Owner_Role__c"
        },
        {
          "name": "Activity_Type__c"
        },
        {
          "name": "Additional_Asset_Link__c"
        },
        {
          "name": "Audience__c"
        },
        {
          "name": "BU_display__c"
        },
        {
          "name": "Button_1_Title__c"
        },
        {
          "name": "Button_2_Title__c"
        },
        {
          "name": "Button_3_Title__c"
        },
        {
          "name": "Button_4_Title__c"
        },
        {
          "name": "Button_5_Title__c"
        },
        {
          "name": "Button_6_Title__c"
        },
        {
          "name": "Campaign_Link__c"
        },
        {
          "name": "Chatter_Group_Link__c"
        },
        {
          "name": "City__c"
        },
        {
          "name": "Cloud_Focus__c"
        },
        {
          "name": "Country__c"
        },
        {
          "name": "Dashboard_Link__c"
        },
        {
          "name": "Description__c"
        },
        {
          "name": "Email_Template_Link__c"
        },
        {
          "name": "End_Date__c"
        },
        {
          "name": "FC_Region__c"
        },
        {
          "name": "Fiscal_Quarter__c"
        },
        {
          "name": "Fiscal_Year__c"
        },
        {
          "name": "Horseman__c"
        },
        {
          "name": "Industry__c"
        },
        {
          "name": "Landing_Page_Link__c"
        },
        {
          "name": "Manager_L5__c"
        },
        {
          "name": "Manager_L6__c"
        },
        {
          "name": "Org62_Campaign_code__c"
        },
        {
          "name": "Owner_Full_Name__c"
        },
        {
          "name": "Partners_involved__c"
        },
        {
          "name": "Patch__c"
        },
        {
          "name": "Pipeline_Forecast__c"
        },
        {
          "name": "SPM_Team__c"
        },
        {
          "name": "Start_Date__c"
        },
        {
          "name": "Status__c"
        },
        {
          "name": "Country_display__c"
        },
        {
          "name": "Region_display__c"
        },
        {
          "name": "ActivityID__c"
        },
        {
          "name": "PCC__c"
        },
        {
          "name": "PCC_Cluster__c"
        },
        {
          "name": "Manager_L3__c"
        },
        {
          "name": "Manager_L4__c"
        },
        {
          "name": "Pipeline_Forecast_Currency__c"
        },
        {
          "name": "SalesPlayId__c"
        },
        {
          "name": "Region__c"
        },
        {
          "name": "BU__c"
        },
        {
          "name": "Budget_requested_catering__c"
        },
        {
          "name": "Budget_requested_other__c"
        },
        {
          "name": "Budget_requested_total__c"
        },
        {
          "name": "Budget_requested_venue__c"
        },
        {
          "name": "Budget_spent_catering__c"
        },
        {
          "name": "Budget_spent_other__c"
        },
        {
          "name": "Budget_spent_total__c"
        },
        {
          "name": "Budget_spent_venue__c"
        },
        {
          "name": "Security0__c"
        },
        {
          "name": "Security1__c"
        },
        {
          "name": "Language__c"
        },
        {
          "name": "Initiative_Type__c"
        }
      ],
      "object": "AIO_Pipegen_Forecast_Split__c"
    }
  },
  "AIO Source filtered": {
    "action": "filter",
    "parameters": {
      "saqlFilter": "Status__c not in [\"Template\",\"Cancelled\"]",
      "source": "AIO Source"
    }
  },
  "AIO Private": {
    "action": "sfdcRegister",
    "parameters": {
      "name": "AIO Private",
      "rowLevelSecurityFilter": "'Security0__c' == \"$User.Name\"  || 'Security1__c' == \"$User.UserRoleId\"",
      "source": "AIO Private Clean",
      "alias": "AIO_Private"
    }
  },
  "AIO Base Clean": {
    "action": "sliceDataset",
    "parameters": {
      "fields": [
        {
          "name": "End_Date__c"
        },
        {
          "name": "Start_Date__c"
        },
        {
          "name": "Budget_requested_catering__c"
        },
        {
          "name": "Budget_requested_other__c"
        },
        {
          "name": "Budget_requested_total__c"
        },
        {
          "name": "Budget_requested_venue__c"
        },
        {
          "name": "Budget_spent_catering__c"
        },
        {
          "name": "Budget_spent_other__c"
        },
        {
          "name": "Budget_spent_total__c"
        },
        {
          "name": "Budget_spent_venue__c"
        },
        {
          "name": "Security0__c"
        },
        {
          "name": "Security1__c"
        }
      ],
      "mode": "drop",
      "source": "FiscalDate"
    }
  },
  "AIO Base": {
    "action": "sfdcRegister",
    "parameters": {
      "name": "AIO Base",
      "source": "AIO Base Clean",
      "alias": "AIO_Base"
    }
  }
}