{
  "global_web_reporting": {
    "action": "edgemart",
    "parameters": {
      "alias": "global_web_reporting"
    }
  },
  "kapost_content_score_v2": {
    "action": "digest",
    "parameters": {
      "connectionName": "Digital_Analytics_Clickstream",
      "fields": [
        {
          "name": "assetURL"
        },
        {
          "name": "audience"
        },
        {
          "name": "businessSize"
        },
        {
          "name": "confURL"
        },
        {
          "name": "contentID"
        },
        {
          "name": "contentTitle"
        },
        {
          "name": "contentTitleLocal"
        },
        {
          "name": "contentType"
        },
        {
          "name": "customerMentioned"
        },
        {
          "name": "formURL"
        },
        {
          "name": "gatedStatus"
        },
        {
          "name": "industry"
        },
        {
          "name": "initiative"
        },
        {
          "name": "language"
        },
        {
          "name": "lifecycleStage"
        },
        {
          "name": "period_end"
        },
        {
          "name": "period_start"
        },
        {
          "name": "product"
        },
        {
          "name": "publishDate"
        },
        {
          "name": "raw_asset_views"
        },
        {
          "name": "raw_bounce_rate"
        },
        {
          "name": "raw_chat_initiations"
        },
        {
          "name": "raw_cta_clicks"
        },
        {
          "name": "raw_exit_rate"
        },
        {
          "name": "raw_first_form_completes"
        },
        {
          "name": "raw_form_completes"
        },
        {
          "name": "raw_form_complete_rate"
        },
        {
          "name": "raw_new_asset_views"
        },
        {
          "name": "raw_prospect_asset_views"
        },
        {
          "name": "raw_subscribes"
        },
        {
          "name": "raw_time_on_page"
        },
        {
          "name": "raw_visits"
        },
        {
          "name": "region"
        },
        {
          "name": "scoreAudience"
        },
        {
          "name": "scoreContentType"
        },
        {
          "name": "scoreLifecycleStage"
        },
        {
          "name": "scoreRegion"
        },
        {
          "name": "scoreType"
        },
        {
          "name": "scoreTypeSort"
        },
        {
          "name": "segmentSize"
        },
        {
          "name": "siteLocale"
        },
        {
          "name": "siteLocaleShort"
        },
        {
          "name": "solution"
        },
        {
          "name": "team"
        },
        {
          "name": "theme"
        },
        {
          "name": "total_score"
        },
        {
          "name": "unweighted_asset_views"
        },
        {
          "name": "unweighted_audience_score"
        },
        {
          "name": "unweighted_bounce_rate"
        },
        {
          "name": "unweighted_chat_initiations"
        },
        {
          "name": "unweighted_cta_clicks"
        },
        {
          "name": "unweighted_engagement_score"
        },
        {
          "name": "unweighted_exit_rate"
        },
        {
          "name": "unweighted_first_form_completes"
        },
        {
          "name": "unweighted_form_completes"
        },
        {
          "name": "unweighted_form_complete_rate"
        },
        {
          "name": "unweighted_new_asset_views"
        },
        {
          "name": "unweighted_progression_score"
        },
        {
          "name": "unweighted_prospect_asset_views"
        },
        {
          "name": "unweighted_subscribes"
        },
        {
          "name": "unweighted_time_on_page"
        },
        {
          "name": "videoName"
        },
        {
          "name": "weighted_asset_views"
        },
        {
          "name": "weighted_audience_score"
        },
        {
          "name": "weighted_bounce_rate"
        },
        {
          "name": "weighted_chat_initiations"
        },
        {
          "name": "weighted_cta_clicks"
        },
        {
          "name": "weighted_engagement_score"
        },
        {
          "name": "weighted_exit_rate"
        },
        {
          "name": "weighted_first_form_completes"
        },
        {
          "name": "weighted_form_completes"
        },
        {
          "name": "weighted_new_asset_views"
        },
        {
          "name": "weighted_progression_score"
        },
        {
          "name": "weighted_prospect_asset_views"
        },
        {
          "name": "weighted_subscribes"
        },
        {
          "name": "weighted_time_on_page"
        },
        {
          "name": "weight_asset_views"
        },
        {
          "name": "weight_audience_score"
        },
        {
          "name": "weight_bounce_rate"
        },
        {
          "name": "weight_chat_initiations"
        },
        {
          "name": "weight_cta_clicks"
        },
        {
          "name": "weight_engagement_score"
        },
        {
          "name": "weight_exit_rate"
        },
        {
          "name": "weight_first_form_completes"
        },
        {
          "name": "weight_form_completes"
        },
        {
          "name": "weight_new_asset_views"
        },
        {
          "name": "weight_progression_score"
        },
        {
          "name": "weight_prospect_asset_views"
        },
        {
          "name": "weight_subscribes"
        },
        {
          "name": "weight_time_on_page"
        },
        {
          "name": "hasScore"
        },
        {
          "name": "paid_penalty"
        },
        {
          "name": "paid_rate"
        },
        {
          "name": "weight_form_complete_rate"
        },
        {
          "name": "weighted_form_complete_rate"
        }
      ],
      "object": "kapost_content_score_v2"
    }
  },
  "drop_campaign": {
    "action": "sliceDataset",
    "parameters": {
      "mode": "drop",
      "source": "fill_nulls_campaign",
      "fields": [
        {
          "name": "campaign.EBU_SL_PROG"
        },
        {
          "name": "campaign.PRNT_CMPGN_NM"
        },
        {
          "name": "campaign.CMPGN_NM"
        },
        {
          "name": "campaign.OFFR_NM"
        },
        {
          "name": "campaign.DRVD_REGN_NM"
        },
        {
          "name": "campaign.PRNT_TACTIC"
        },
        {
          "name": "campaign.PRNT_MSTR_CMPN"
        },
        {
          "name": "campaign.CMPGN_INDUSTRY_NM"
        },
        {
          "name": "campaign.CMPGN_PROD_NM"
        },
        {
          "name": "campaign.PRNT_CMPGN_ID"
        },
        {
          "name": "campaign.X3_WORD_SUMM"
        },
        {
          "name": "publishDateFiscal"
        },
        {
          "name": "visitDateFiscal"
        }
      ]
    }
  },
  "kapost_content_missing": {
    "action": "digest",
    "parameters": {
      "connectionName": "Digital_Analytics_Clickstream",
      "fields": [
        {
          "name": "assetURL"
        },
        {
          "name": "confURL"
        },
        {
          "name": "contentTitle"
        },
        {
          "name": "formURL"
        },
        {
          "name": "gatedStatus"
        },
        {
          "name": "reason"
        },
        {
          "name": "team"
        },
        {
          "name": "videoName"
        }
      ],
      "object": "kapost_content_missing"
    }
  },
  "global_web_reporting_append": {
    "action": "digest",
    "parameters": {
      "connectionName": "Digital_Analytics_Clickstream",
      "fields": [
        {
          "name": "autoFormCompletes"
        },
        {
          "name": "calendarMonth"
        },
        {
          "name": "calendarMonthPrior"
        },
        {
          "name": "channelGrouping"
        },
        {
          "name": "chatInitiations"
        },
        {
          "name": "chatViews"
        },
        {
          "name": "convertingPageName"
        },
        {
          "name": "convertingSiteCategory"
        },
        {
          "name": "convertingSiteSection"
        },
        {
          "name": "deviceCategory"
        },
        {
          "name": "entries"
        },
        {
          "name": "fiscalYearQuarter"
        },
        {
          "name": "formCompletes"
        },
        {
          "name": "formCountry"
        },
        {
          "name": "formCountryTier"
        },
        {
          "name": "formJoinID"
        },
        {
          "name": "formRegion"
        },
        {
          "name": "formViews"
        },
        {
          "name": "geoCountry"
        },
        {
          "name": "geoCountryTier"
        },
        {
          "name": "geoRegion"
        },
        {
          "name": "landingSiteCategory"
        },
        {
          "name": "landingSiteSection"
        },
        {
          "name": "offerCoreType"
        },
        {
          "name": "offerProduct"
        },
        {
          "name": "offerType"
        },
        {
          "name": "pageName"
        },
        {
          "name": "pageViews"
        },
        {
          "name": "sessionID"
        },
        {
          "name": "singlePageViews"
        },
        {
          "name": "siteCategory"
        },
        {
          "name": "siteCountry"
        },
        {
          "name": "siteCountryTier"
        },
        {
          "name": "siteRegion"
        },
        {
          "name": "siteSection"
        },
        {
          "name": "trafficType"
        },
        {
          "name": "visitDate"
        },
        {
          "name": "visitorID"
        },
        {
          "name": "visitorType"
        }
      ],
      "object": "global_web_reporting"
    }
  },
  "cloud_web_reporting_append": {
    "action": "digest",
    "parameters": {
      "connectionName": "Digital_Analytics_Clickstream",
      "fields": [
        {
          "name": "autoFormCompletes"
        },
        {
          "name": "chatInitialized"
        },
        {
          "name": "chatPrompts"
        },
        {
          "name": "chatViews"
        },
        {
          "name": "cloudConvertingSection"
        },
        {
          "name": "cloudSection"
        },
        {
          "name": "convertingPageName"
        },
        {
          "name": "convertingSection"
        },
        {
          "name": "convertingSubSection"
        },
        {
          "name": "deviceCategory"
        },
        {
          "name": "entries"
        },
        {
          "name": "exits"
        },
        {
          "name": "formCompletes"
        },
        {
          "name": "formViews"
        },
        {
          "name": "inboundCalls"
        },
        {
          "name": "marketingChannel"
        },
        {
          "name": "offer"
        },
        {
          "name": "offerCoreType"
        },
        {
          "name": "offerType"
        },
        {
          "name": "pageViews"
        },
        {
          "name": "pageName"
        },
        {
          "name": "section"
        },
        {
          "name": "sessionID"
        },
        {
          "name": "singlePageViews"
        },
        {
          "name": "subSection"
        },
        {
          "name": "totalFormCompletes"
        },
        {
          "name": "trafficType"
        },
        {
          "name": "uniquePageViews"
        },
        {
          "name": "visitorType"
        },
        {
          "name": "visitorID"
        },
        {
          "name": "visitDate"
        },
        {
          "name": "userType"
        },
        {
          "name": "geoCountry"
        },
        {
          "name": "geoRegion"
        },
        {
          "name": "landingPageName"
        },
        {
          "name": "trafficSource"
        },
        {
          "name": "trafficDriver"
        },
        {
          "name": "timeOnPage"
        },
        {
          "name": "offerID"
        },
        {
          "name": "offerCampaignName"
        }
      ],
      "object": "cloud_web_reporting"
    }
  },
  "output_cloud_web_reporting": {
    "action": "sfdcRegister",
    "parameters": {
      "name": "cloud_web_reporting",
      "alias": "cloud_web_reporting",
      "source": "append_cloud_web_reporting"
    }
  },
  "Filter_First_90": {
    "action": "filter",
    "parameters": {
      "source": "Keep_Kapost_Content_Score_V2",
      "saqlFilter": "'scoreType' == \"First 90 Days\""
    }
  },
  "Keep_Kapost_Content_Score_V2": {
    "action": "sliceDataset",
    "parameters": {
      "mode": "select",
      "source": "kapost_content_score_v2",
      "fields": [
        {
          "name": "contentID"
        },
        {
          "name": "scoreType"
        },
        {
          "name": "total_score"
        }
      ]
    }
  },
  "augment_kapost_content": {
    "action": "augment",
    "parameters": {
      "right_key": [
        "contentID"
      ],
      "left": "kapost_content",
      "left_key": [
        "contentID"
      ],
      "right_select": [
        "contentID"
      ],
      "right": "kapost_content_merge",
      "relationship": "same",
      "operation": "LookupSingleValue"
    }
  },
  "output_kapost_multiselects": {
    "action": "sfdcRegister",
    "parameters": {
      "name": "kapost_multiselects",
      "alias": "kapost_multiselects",
      "source": "kapost_multiselects"
    }
  },
  "Filter_Recent_30 Days": {
    "action": "filter",
    "parameters": {
      "source": "Keep_Kapost_Content_Score_V2",
      "saqlFilter": "'scoreType' == \"Recent (30 Days)\""
    }
  },
  "drop_content_id": {
    "action": "sliceDataset",
    "parameters": {
      "mode": "drop",
      "source": "filter_kapost_content",
      "fields": [
        {
          "name": "same.contentID"
        },
        {
          "name": "Score_30_total_score"
        },
        {
          "name": "Score_90_total_score"
        },
        {
          "name": "Score_lifetime_total_score"
        }
      ]
    }
  },
  "output_kapost_content_missing": {
    "action": "sfdcRegister",
    "parameters": {
      "name": "Kapost_Content_Missing",
      "alias": "Kapost_Content_Missing",
      "source": "kapost_content_missing"
    }
  },
  "output_kapost_content": {
    "action": "sfdcRegister",
    "parameters": {
      "rowLevelSecurityFilter": "",
      "name": "Kapost_Content",
      "alias": "Kapost_Content",
      "source": "Drop_Score"
    }
  },
  "Filter_Lifetime": {
    "action": "filter",
    "parameters": {
      "source": "Keep_Kapost_Content_Score_V2",
      "saqlFilter": "'scoreType' == \"Lifetime (1 Year)\""
    }
  },
  "output_global_web_reporting": {
    "action": "sfdcRegister",
    "parameters": {
      "name": "global_web_reporting",
      "alias": "global_web_reporting",
      "source": "append_global_web_reporting"
    }
  },
  "Aug_kapost_First_90": {
    "action": "augment",
    "parameters": {
      "right_key": [
        "contentID"
      ],
      "left": "Aug_kapost_Recent_30",
      "left_key": [
        "contentID"
      ],
      "right_select": [
        "total_score"
      ],
      "right": "Filter_First_90",
      "relationship": "Score_90",
      "operation": "LookupSingleValue"
    }
  },
  "fill_nulls_campaign": {
    "action": "computeExpression",
    "parameters": {
      "source": "augment_campaign",
      "mergeWithSource": true,
      "computedFields": [
        {
          "name": "campaignName",
          "saqlExpression": "coalesce('campaign.CMPGN_NM', \"(not set)\")",
          "label": "Campaign Name",
          "type": "Text"
        },
        {
          "saqlExpression": "coalesce('campaign.PRNT_CMPGN_NM', \"(not set)\")",
          "name": "parentCampaignName",
          "label": "Parent Campaign Name",
          "type": "Text"
        },
        {
          "saqlExpression": "coalesce('campaign.OFFR_NM', \"(not set)\")",
          "name": "offerName",
          "label": "Offer Name",
          "type": "Text"
        },
        {
          "name": "campaignIndustry",
          "saqlExpression": "coalesce('campaign.CMPGN_INDUSTRY_NM', \"(not set)\")",
          "label": "Campaign Industry",
          "type": "Text"
        },
        {
          "name": "campaignProduct",
          "saqlExpression": "coalesce('campaign.CMPGN_PROD_NM', \"(not set)\")",
          "label": "Campaign Product",
          "type": "Text"
        },
        {
          "saqlExpression": "coalesce('campaign.X3_WORD_SUMM', \"(not set)\")",
          "name": "threeWordSummary",
          "label": "Three Word Summary",
          "type": "Text"
        },
        {
          "name": "campaignRegion",
          "saqlExpression": "coalesce('campaign.DRVD_REGN_NM', \"(not set)\")",
          "label": "Campaign Region",
          "type": "Text"
        },
        {
          "saqlExpression": "coalesce('campaign.PRNT_TACTIC', \"(not set)\")",
          "name": "parentTactic",
          "label": "Parent Tactic",
          "type": "Text"
        },
        {
          "saqlExpression": "coalesce('campaign.PRNT_MSTR_CMPN', \"(not set)\")",
          "name": "parentMasterCampaignName",
          "label": "Parent Master Campaign Name",
          "type": "Text"
        },
        {
          "saqlExpression": "coalesce('campaign.PRNT_CMPGN_ID', \"(not set)\")",
          "name": "parentCampaignID",
          "label": "Parent Campaign ID",
          "type": "Text"
        },
        {
          "name": "salesProgram",
          "saqlExpression": "coalesce('campaign.EBU_SL_PROG', \"(not set)\")",
          "label": "salesProgram",
          "type": "Text"
        },
        {
          "fiscalMonthOffset": 1,
          "firstDayOfWeek": -1,
          "saqlExpression": "toDate('publishDateFiscal_sec_epoch')",
          "name": "publishDate",
          "format": "yyyy-MM-dd",
          "label": "publishDate",
          "type": "Date",
          "isYearEndFiscalYear": false
        },
        {
          "fiscalMonthOffset": 1,
          "firstDayOfWeek": -1,
          "saqlExpression": "toDate('visitDateFiscal_sec_epoch')",
          "format": "yyyy-MM-dd",
          "name": "visitDate",
          "label": "visitDate",
          "type": "Date",
          "isYearEndFiscalYear": false
        }
      ]
    }
  },
  "kapost_content_append": {
    "action": "digest",
    "parameters": {
      "connectionName": "Digital_Analytics_Clickstream",
      "fields": [
        {
          "name": "assetEntries"
        },
        {
          "name": "assetExits"
        },
        {
          "name": "assetSinglePageVisits"
        },
        {
          "name": "assetTimeOnPage"
        },
        {
          "name": "assetTimeOnPageViews"
        },
        {
          "name": "audience"
        },
        {
          "name": "autoFormCompletes"
        },
        {
          "name": "businessSize"
        },
        {
          "name": "chatInitiations"
        },
        {
          "name": "confEntries"
        },
        {
          "name": "confExits"
        },
        {
          "name": "confPageViews"
        },
        {
          "name": "confTimeOnPage"
        },
        {
          "name": "confTimeOnPageViews"
        },
        {
          "name": "confURL"
        },
        {
          "name": "confVisitID"
        },
        {
          "name": "contentTitle"
        },
        {
          "name": "contentType"
        },
        {
          "name": "customerMentioned"
        },
        {
          "name": "externalDriverID"
        },
        {
          "name": "formCompletes"
        },
        {
          "name": "formEntries"
        },
        {
          "name": "formPageViews"
        },
        {
          "name": "formSinglePageVisits"
        },
        {
          "name": "formURL"
        },
        {
          "name": "formViews"
        },
        {
          "name": "formVisitID"
        },
        {
          "name": "gatedStatus"
        },
        {
          "name": "language"
        },
        {
          "name": "initiative"
        },
        {
          "name": "lifecycleStage"
        },
        {
          "name": "product"
        },
        {
          "name": "region"
        },
        {
          "name": "scoreAudience"
        },
        {
          "name": "scoreLifecycleStage"
        },
        {
          "name": "scoreRegion"
        },
        {
          "name": "siteLocaleShort"
        },
        {
          "name": "socialChannel"
        },
        {
          "name": "socialClicks"
        },
        {
          "name": "solution"
        },
        {
          "name": "team"
        },
        {
          "name": "theme"
        },
        {
          "name": "totalEntries"
        },
        {
          "name": "totalExits"
        },
        {
          "name": "totalPageViews"
        },
        {
          "name": "totalSinglePageVisits"
        },
        {
          "name": "totalTimeOnPage"
        },
        {
          "name": "totalTimeOnPageViews"
        },
        {
          "name": "userType"
        },
        {
          "name": "videoName"
        },
        {
          "name": "videoView100Pct"
        },
        {
          "name": "videoView25Pct"
        },
        {
          "name": "videoView50Pct"
        },
        {
          "name": "videoView75Pct"
        },
        {
          "name": "videoViews"
        },
        {
          "name": "visitID"
        },
        {
          "name": "visitorType"
        },
        {
          "name": "trafficType"
        },
        {
          "name": "totalFormCompletes"
        },
        {
          "name": "subscribes"
        },
        {
          "name": "siteLocale"
        },
        {
          "name": "industry"
        },
        {
          "name": "formTimeOnPage"
        },
        {
          "name": "formTimeOnPageViews"
        },
        {
          "name": "formExits"
        },
        {
          "name": "externalDriver"
        },
        {
          "name": "contentID"
        },
        {
          "name": "confSinglePageVisits"
        },
        {
          "name": "campaignID"
        },
        {
          "name": "assetVisitID"
        },
        {
          "name": "assetURL"
        },
        {
          "name": "assetPageViews"
        },
        {
          "name": "videoAssetPageViews"
        },
        {
          "name": "contentTitleLocal"
        },
        {
          "name": "scoreContentType"
        },
        {
          "name": "firstFormInfluences"
        },
        {
          "name": "internalDriverClicks"
        },
        {
          "name": "visitorID"
        },
        {
          "name": "publishDateFiscal"
        },
        {
          "name": "visitDateFiscal"
        },
        {
          "name": "daysSincePublish"
        }
      ],
      "object": "kapost_content_append"
    }
  },
  "kapost_multiselects": {
    "action": "digest",
    "parameters": {
      "connectionName": "Digital_Analytics_Clickstream",
      "fields": [
        {
          "name": "field"
        },
        {
          "name": "value"
        }
      ],
      "object": "kapost_multiselects"
    }
  },
  "filter_kapost_content": {
    "action": "filter",
    "parameters": {
      "source": "augment_kapost_content",
      "saqlFilter": "'same.contentID' is null"
    }
  },
  "Aug_kapost_Lifetime": {
    "action": "augment",
    "parameters": {
      "right_key": [
        "contentID"
      ],
      "left": "Aug_kapost_First_90",
      "left_key": [
        "contentID"
      ],
      "right_select": [
        "total_score"
      ],
      "right": "Filter_Lifetime",
      "relationship": "Score_lifetime",
      "operation": "LookupSingleValue"
    }
  },
  "kapost_content_merge": {
    "action": "digest",
    "parameters": {
      "connectionName": "Digital_Analytics_Clickstream",
      "fields": [
        {
          "name": "contentID"
        }
      ],
      "object": "kapost_content_merge"
    }
  },
  "append_cloud_web_reporting": {
    "action": "append",
    "parameters": {
      "enableDisjointedSchemaMerge": true,
      "sources": [
        "cloud_web_reporting",
        "cloud_web_reporting_append"
      ]
    }
  },
  "append_global_web_reporting": {
    "action": "append",
    "parameters": {
      "enableDisjointedSchemaMerge": true,
      "sources": [
        "global_web_reporting",
        "global_web_reporting_append"
      ]
    }
  },
  "output_kapost_content_score_v2": {
    "action": "sfdcRegister",
    "parameters": {
      "name": "Kapost_Content_Score_V2",
      "alias": "Kapost_Content_Score_V2",
      "source": "kapost_content_score_v2"
    }
  },
  "kapost_content": {
    "action": "edgemart",
    "parameters": {
      "alias": "Kapost_Content"
    }
  },
  "append_kapost_content": {
    "action": "append",
    "parameters": {
      "enableDisjointedSchemaMerge": true,
      "sources": [
        "drop_campaign",
        "drop_content_id"
      ]
    }
  },
  "Drop_Score": {
    "action": "sliceDataset",
    "parameters": {
      "mode": "drop",
      "source": "Compute_Score_Names",
      "fields": [
        {
          "name": "Score_30.total_score"
        },
        {
          "name": "Score_90.total_score"
        },
        {
          "name": "Score_lifetime.total_score"
        }
      ]
    }
  },
  "Aug_kapost_Recent_30": {
    "action": "augment",
    "parameters": {
      "right_key": [
        "contentID"
      ],
      "left": "append_kapost_content",
      "left_key": [
        "contentID"
      ],
      "right_select": [
        "total_score"
      ],
      "right": "Filter_Recent_30 Days",
      "relationship": "Score_30",
      "operation": "LookupSingleValue"
    }
  },
  "Compute_Score_Names": {
    "action": "computeExpression",
    "parameters": {
      "source": "Aug_kapost_Lifetime",
      "mergeWithSource": true,
      "computedFields": [
        {
          "precision": 16,
          "saqlExpression": "'Score_30.total_score'",
          "name": "Score_30_total_score",
          "scale": 2,
          "label": "Score_30_total_score",
          "type": "Numeric"
        },
        {
          "precision": 16,
          "saqlExpression": "'Score_90.total_score'",
          "name": "Score_90_total_score",
          "scale": 2,
          "label": "Score_90_total_score",
          "type": "Numeric"
        },
        {
          "precision": 16,
          "saqlExpression": "'Score_lifetime.total_score'",
          "name": "Score_lifetime_total_score",
          "scale": 2,
          "label": "Score_lifetime_total_score",
          "type": "Numeric"
        }
      ]
    }
  },
  "responses": {
    "action": "edgemart",
    "parameters": {
      "alias": "WV_RESPONSE"
    }
  },
  "cloud_web_reporting": {
    "action": "edgemart",
    "parameters": {
      "alias": "cloud_web_reporting"
    }
  },
  "augment_campaign": {
    "action": "augment",
    "parameters": {
      "right_key": [
        "CMPGN_ID"
      ],
      "left": "kapost_content_append",
      "left_key": [
        "campaignID"
      ],
      "right_select": [
        "PRNT_CMPGN_NM",
        "CMPGN_NM",
        "OFFR_NM",
        "DRVD_REGN_NM",
        "PRNT_TACTIC",
        "PRNT_MSTR_CMPN",
        "CMPGN_INDUSTRY_NM",
        "CMPGN_PROD_NM",
        "PRNT_CMPGN_ID",
        "X3_WORD_SUMM",
        "EBU_SL_PROG"
      ],
      "right": "responses",
      "relationship": "campaign",
      "operation": "LookupSingleValue"
    }
  }
}